%TGIF 4.1.34
state(0,37,100.000,0,0,0,16,1,9,1,1,0,0,1,0,1,0,'Courier',0,80640,0,0,0,10,0,0,1,1,0,16,0,0,1,1,1,0,1088,1408,1,0,2880,0).
%
% @(#)$Header$
% %W%
%
unit("1 pixel/pixel").
color_info(12,65535,0,[
	"magenta", 65535, 0, 65535, 65535, 0, 65535, 1,
	"red", 65535, 0, 0, 65535, 0, 0, 1,
	"green", 0, 65535, 0, 0, 65535, 0, 1,
	"blue", 0, 0, 65535, 0, 0, 65535, 1,
	"yellow", 65535, 65535, 0, 65535, 65535, 0, 1,
	"pink", 65535, 49344, 52171, 65535, 49344, 52171, 1,
	"cyan", 0, 65535, 65535, 0, 65535, 65535, 1,
	"CadetBlue", 24415, 40606, 41120, 24415, 40606, 41120, 1,
	"white", 65535, 65535, 65535, 65535, 65535, 65535, 1,
	"black", 0, 0, 0, 0, 0, 0, 1,
	"DarkSlateGray", 12079, 20303, 20303, 12079, 20303, 20303, 1,
	"#CA94AA469193", 51914, 43690, 37265, 51860, 43590, 37267, 1
]).
script_frac("0.6").
fg_bg_colors('black','#CA94AA469193').
page(1,"",1,'').
xbm('black','',80,48,528,429,0,0,0,448,381,0,0,1,82000,240000,530000,621000,1,0,0,0,0,0,0,
    "Thu Sep 28 10:47:43 2000","fig3-1.eps",[
]).
