%!PS-Adobe-2.0 EPSF-2.0
%%BoundingBox: 0 0 283 170
%%Title: /disk1/users/reimer/hermes/rapgap/epic/error.eps
%%Creator: HIGZ Version 1.25/05
%%CreationDate: 2000/09/18   09.55
%%EndComments
%%BeginProlog
80 dict begin
/s {stroke} def /l {lineto} def /m {moveto} def /t {translate} def
/sw {stringwidth} def /r {rotate} def /rl {roll}  def /R {repeat} def
/d {rlineto} def /rm {rmoveto} def /gr {grestore} def /f {eofill} def
/c {setrgbcolor} def /lw {setlinewidth} def /sd {setdash} def
/cl {closepath} def /sf {scalefont setfont} def /black {0 setgray} def
/box {m dup 0 exch d exch 0 d 0 exch neg d cl} def
/NC{systemdict begin initclip end}def/C{NC box clip newpath}def
/bl {box s} def /bf {box f} def /Y { 0 exch d} def /X { 0 d} def 
/mp {newpath /y exch def /x exch def} def
/side {[w .77 mul w .23 mul] .385 w mul sd w 0 l currentpoint t -144 r} def
/mr {mp x y w2 0 360 arc} def /m24 {mr s} def /m20 {mr f} def
/mb {mp x y w2 add m w2 neg 0 d 0 w neg d w 0 d 0 w d cl} def
/mt {mp x y w2 add m w2 neg w neg d w 0 d cl} def
/m21 {mb f} def /m25 {mb s} def /m22 {mt f} def /m26{mt s} def
/m23 {mp x y w2 sub m w2 w d w neg 0 d cl f} def
/m27 {mp x y w2 add m w3 neg w2 neg d w3 w2 neg d w3 w2 d cl s} def
/m28 {mp x w2 sub y w2 sub w3 add m w3 0 d 0 w3 neg d w3 0 d 0 w3 d w3 0 d
 0 w3 d w3 neg 0 d 0 w3 d w3 neg 0 d
 0 w3 neg d w3 neg 0 d cl s } def
/m29 {mp gsave x w2 sub y w2 add w3 sub m currentpoint t
 4 {side} repeat cl fill gr} def
/m30 {mp gsave x w2 sub y w2 add w3 sub m currentpoint t
 5 {side} repeat s gr} def
/m31 {mp x y w2 sub m 0 w d x w2 sub y m w 0 d
 x w2 sub y w2 add m w w neg d x w2 sub y w2
 sub m w w d s} def
/m2 {mp x y w2 sub m 0 w d x w2 sub y m w 0 d s} def
/m5 {mp x w2 sub y w2 sub m w w d x w2 sub y w2 add m w w neg d s} def
/DP {/PT exch def gsave 47.2 47.2 scale PT 1  eq { 16 16 1 [ 16 0 0 16 neg 0 16
] { < AA AA 55 55 AA AA 55 55 AA AA 55 55 AA AA 55 55 AA AA 55 55 AA AA 55 55
AA AA 55 55 AA AA 55 55 > } image } if PT 2 eq { 16 16 1 [ 16 0 0 16 neg 0 16
] { < BB BB EE EE BB BB EE EE BB BB EE EE BB BB EE EE BB BB EE EE BB BB EE EE
BB BB EE EE BB BB EE EE > } image } if PT 3 eq { 16 16 1 [ 16 0 0 16 neg 0 16
] { < FF FF BB BB FF FF EE EE FF FF BB BB FF FF EE EE FF FF BB BB FF FF EE EE
FF FF BB BB FF FF EE EE > } image } if PT 4 eq { 16 16 1 [ 16 0 0 16 neg 0 16
] { < DF DF BF BF 7F 7F FE FE FD FD FB FB F7 F7 EF EF DF DF BF BF 7F 7F FE FE
FD FD FB FB F7 F7 EF EF > } image } if PT 5 eq { 16 16 1 [ 16 0 0 16 neg 0 16
] { < 7F 7F BF B F DF DF EF EF F7 F7 FB FB FD FD FE FE 7F 7F BF BF DF DF EF
EF F7 F7 FB FB FD FD FE FE > } image } if PT 6 eq { 16 16 1 [ 16 0 0 16 neg 0
16 ] { < BB BB BB BB BB BB BB BB BB BB BB BB BB BB BB BB BB BB BB BB BB BB BB
BB BB BB BB BB BB BB BB BB > } image } if PT 7 eq { 16 16 1 [ 16 0 0 16 neg 0
16 ] { < FF FF FF FF FF FF 00 00 FF FF FF FF FF FF 00 00 FF FF FF FF FF FF 00
00 FF FF FF FF FF FF 00 00 > } image } if PT 8 eq { 16 16 1 [ 16 0 0 16 neg 0
16 ] { < EE EE 47 47 83 83 C5 C5 EE EE 5C 5C 38 38 74 74 EE EE 47 47 83 83 C5
C5 EE EE 5C 5C 38 38 74 74 > } image } if PT 9 eq { 16 16 1 [ 16 0 0 16 neg 0
16 ] { < EF EF EF EF D7 D7 38 38 FE FE FE FE 7D 7D 83 83 EF EF EF EF D7 D7 38
38  FE FE FE FE 7D 7D 83 83 > } image } if PT 10 eq { 16 16 1 [ 16 0 0 16 neg
0 16 ] { <  EF EF EF EF EF EF 00 00 FE FE FE FE FE FE 00 00 EF EF EF EF EF EF
00 00 FE FE FE FE FE FE 00 00 > } image } if PT 11 eq { 16 16 1 [ 16 0 0 16
neg 0 16 ] { < F7 F7 B6 B6 D5 D5 E3 E3 D5 D5 B6 B6 F7 F7 FF FF 7F 7F 6B 6B 5D
5D 3E 3E 5D 5D 6B 6B 7F 7F FF FF > } image } if PT 12 eq { 16 16 1 [ 16 0 0
16 neg 0 16 ] { < E3 E3 DD DD BE BE BE BE BE BE DD DD E3 E3 FF FF 3E 3E DD DD
EB EB EB EB EB EB DD DD 3E 3E FF FF > } image } if PT 13 eq { 16 16 1 [ 16 0
0 16 neg 0 16 ] { <  FE FE 7D 7D BB BB D7 D7 EF EF D7 D7 BB BB 7D 7D FE FE 7D
7D BB BB D7 D7 EF EF D7 D7 BB BB 7D 7D > } image } if PT 14 eq { 16 16 1 [ 16
0 0 16 neg 0 16 ] { < 00 00 EE EF EE EF EE EF 0E E0 EE EE EE EE EE EE 00 EE
FE EE FE EE FE EE 00 00 FE EF FE EF FE EF > } image } if PT 15 eq { 16 16 1 [
16 0 0 16 neg 0 16 ] { < DD DD AA AA DD DD FF FF 77 77 AA AA 77 77 FF FF DD
DD AA AA DD DD FF FF 77 77 AA AA 77 77 FF FF > } image } if PT 16 eq { 16 16
1 [ 16 0 0 16 neg 0 16 ] { <  F1 F1 EE EE 1F 1F FF FF F1 F1 EE EE 1F 1F FF FF
F1 F1 EE EE 1F 1F FF FF F1 F1 EE EE 1F 1F FF FF > } image } if PT 17 eq { 16
16 1 [ 16 0 0 16 neg 0 16 ] { <  EE EE DD DD BB BB FF FF EE EE DD DD BB BB FF
 FF EE EE DD DD BB BB FF FF EE EE DD DD BB BB FF FF > } image } if PT 18 eq {
16 16 1 [ 16 0 0 16 neg 0 16 ] { <  BB BB DD DD EE EE FF FF BB BB DD DD EE EE
FF FF BB BB DD DD EE EE FF FF BB BB DD DD EE EE FF FF > } image } if PT 19 eq
{ 16 16 1 [ 16 0 0 16 neg 0 16 ] { < 1F FC 67 F3 7B EF BD DE BD DE DE BD E6
B3 F8 0F E6 B3 DE BD BD DE BD DE 7B EF 67 F3 1F FC 7F FF > } image } if PT
20 eq { 16 16 1 [ 16 0 0 16 neg 0 16 ] { < DD DD EE EE EE EE EE EE DD DD BB
BB BB BB BB BB DD DD EE EE EE EE EE EE DD DD BB BB BB BB BB BB > } image }
if PT 21 eq { 16 16 1 [ 16 0 0 16 neg 0 16 ] { < 0E 0E EF EF EF EF EF EF E0
E0 FE FE FE FE FE FE 0E 0E EF EF EF EF EF EF E0 E0 FE FE FE FE FE FE > }
image }  if PT 22 eq { 16 16 1 [ 16 0 0 16 neg 0 16 ] { < 70 70 F7 F7 F7 F7 F7
F7 07 07 7F 7F 7F 7F 7F 7F 70 70 F7 F7 F7 F7 F7 F7 07 07 7F 7F 7F 7F 7F 7F >
} image } if PT 23 eq  { 16 16 1 [ 16 0 0 16 neg 0 16 ] { < AA AA 55 55 A9 A9
D1 D1 E1 E1 D1 D1 A9 A9 55 55 AA AA 55 55 A9 A9 D1 D1 E1 E1 D1 D1 A9 A9 55 55
> } image } if PT 24 eq { 16 16 1 [ 16 0 0 16 neg 0 16 ] { < FF FE FF FC EA
A8 D5 54 EA A8 D5 54 E8 28 D4 54 E8 E8 D4 D4 E8 EA 54 D5 A8 EA 54 D5 00 C0 00
80 > } image } if PT 25 eq {  16 16 1 [ 16 0 0 16 neg 0 16 ] { < FF FE FF FC
FF F8 FF F0 F0 00 F0 00 F0 20 F0 60 F0 E0 F1 E0 F3 E0 F0 00 E0 00 C0 00 80 00
00 00 > } image } if gr } def /FA { /PT exch def gsave clip 0 0 translate 1 1
74 { 1 sub 47.2 mul /Xcurr exch def 1 1 74 { 1 sub 47.2 mul /Ycurr exch def
gsave Xcurr Ycurr translate PT DP gr } for } for gr newpath } def
/reencdict 24 dict def /ReEncode {reencdict begin /nco&na exch def
/nfnam exch def /basefontname exch def /basefontdict basefontname findfont def
/newfont basefontdict maxlength dict def basefontdict {exch dup /FID ne
{dup /Encoding eq {exch dup length array copy newfont 3 1 roll put} {exch
newfont 3 1 roll put} ifelse} {pop pop} ifelse } forall newfont
/FontName nfnam put nco&na aload pop nco&na length 2 idiv {newfont
/Encoding get 3 1 roll put} repeat nfnam newfont definefont pop end } def
/accvec [ 176 /agrave 181 /Agrave 190 /acircumflex 192 /Acircumflex
201 /adieresis 204 /Adieresis 209 /ccedilla 210 /Ccedilla 211 /eacute
212 /Eacute 213 /egrave 214 /Egrave 215 /ecircumflex 216 /Ecircumflex
217 /edieresis 218 /Edieresis 219 /icircumflex 220 /Icircumflex
221 /idieresis 222 /Idieresis 223 /ntilde 224 /Ntilde 226 /ocircumflex
228 /Ocircumflex 229 /odieresis 230 /Odieresis 231 /ucircumflex 236 /Ucircumflex
237 /udieresis 238 /Udieresis 239 /aring 242 /Aring 243 /ydieresis
244 /Ydieresis 246 /aacute 247 /Aacute 252 /ugrave 253 /Ugrave] def
/Times-Roman /Times-Roman accvec ReEncode
/Times-Italic /Times-Italic accvec ReEncode
/Times-Bold /Times-Bold accvec ReEncode
/Times-BoldItalic /Times-BoldItalic accvec ReEncode
/Helvetica /Helvetica accvec ReEncode
/Helvetica-Oblique /Helvetica-Oblique accvec ReEncode
/Helvetica-Bold /Helvetica-Bold accvec ReEncode
/Helvetica-BoldOblique /Helvetica-BoldOblique  accvec ReEncode
/Courier /Courier accvec ReEncode
/Courier-Oblique /Courier-Oblique accvec ReEncode
/Courier-Bold /Courier-Bold accvec ReEncode
/Courier-BoldOblique /Courier-BoldOblique accvec ReEncode
/oshow {gsave [] 0 sd true charpath stroke gr} def
/stwn { /fs exch def /fn exch def /text exch def fn findfont fs sf
 text sw pop xs add /xs exch def} def
/stwb { /fs exch def /fn exch def /nbas exch def /textf exch def
textf length /tlen exch def nbas tlen gt {/nbas tlendef} if
fn findfont fs sf textf dup length nbas sub nbas getinterval sw
pop neg xs add /xs exch def} def
/accspe [ 65 /plusminus 66 /bar 67 /existential 68 /universal
69 /exclam 70 /numbersign 71 /greater 72 /question 73 /integral
74 /colon 75 /semicolon 76 /less 77 /bracketleft 78 /bracketright
79 /greaterequal 80 /braceleft 81 /braceright 82 /radical
83 /spade 84 /heart 85 /diamond 86 /club 87 /lessequal
88 /multiply 89 /percent 90 /infinity 48 /circlemultiply 49 /circleplus
50 /emptyset 51 /lozenge 52 /bullet 53 /arrowright 54 /arrowup
55 /arrowleft 56 /arrowdown 57 /arrowboth 48 /degree 44 /comma 43 /plus
 45 /angle 42 /angleleft 47 /divide 61 /notequal 40 /equivalence 41 /second
 97 /approxequal 98 /congruent 99 /perpendicular 100 /partialdiff 101 /florin
 102 /intersection 103 /union 104 /propersuperset 105 /reflexsuperset
 106 /notsubset 107 /propersubset 108 /reflexsubset 109 /element 110 /notelement
 111 /gradient 112 /logicaland 113 /logicalor 114 /arrowdblboth
 115 /arrowdblleft 116 /arrowdblup 117 /arrowdblright 118 /arrowdbldown
 119 /ampersand 120 /omega1 121 /similar 122 /aleph ] def
/Symbol /Special accspe ReEncode
%%EndProlog
 gsave  .25 .25 scale  gsave 0 0 t black [] 0 sd 1 lw 883 431 226 226 bl 883 431
 226 226 C NC 226 226 m 431 Y s 260 226 m -34 X s 243 262 m -17 X s 260 298 m
 -34 X s 243 334 m -17 X s 260 370 m -34 X s 243 406 m -17 X s 260 441 m -34 X s
 243 477 m -17 X s 260 513 m -34 X s 243 549 m -17 X s 260 585 m -34 X s 243 621
 m -17 X s 260 657 m -34 X s 260 226 m -34 X s
 /xs 0 def 
(0.85)
 /Times-Roman     37 stwn 
 gsave  181 214
 t   0 r  xs neg 0 t 0 0 m
 /Times-Roman findfont   37 sf 0    0 m 
(0.85)
 show 
 gr 
 /xs 0 def 
(0.9)
 /Times-Roman     37 stwn 
 gsave  181 286
 t   0 r  xs neg 0 t 0 0 m
 /Times-Roman findfont   37 sf 0    0 m 
(0.9)
 show 
 gr 
 /xs 0 def 
(0.95)
 /Times-Roman     37 stwn 
 gsave  181 357
 t   0 r  xs neg 0 t 0 0 m
 /Times-Roman findfont   37 sf 0    0 m 
(0.95)
 show 
 gr 
 /xs 0 def 
(1)
 /Times-Roman     37 stwn 
 gsave  181 429
 t   0 r  xs neg 0 t 0 0 m
 /Times-Roman findfont   37 sf 0    0 m 
(1)
 show 
 gr 
 /xs 0 def 
(1.05)
 /Times-Roman     37 stwn 
 gsave  181 501
 t   0 r  xs neg 0 t 0 0 m
 /Times-Roman findfont   37 sf 0    0 m 
(1.05)
 show 
 gr 
 /xs 0 def 
(1.1)
 /Times-Roman     37 stwn 
 gsave  181 572
 t   0 r  xs neg 0 t 0 0 m
 /Times-Roman findfont   37 sf 0    0 m 
(1.1)
 show 
 gr 
 /xs 0 def 
(1.15)
 /Times-Roman     37 stwn 
 gsave  181 644
 t   0 r  xs neg 0 t 0 0 m
 /Times-Roman findfont   37 sf 0    0 m 
(1.15)
 show 
 gr  226 226 m 883 X s 226 260 m -34 Y s 244 243 m -17 Y s 262 243 m -17 Y s 279
 243 m -17 Y s 297 243 m -17 Y s 315 260 m -34 Y s 332 243 m -17 Y s 350 243 m
 -17 Y s 368 243 m -17 Y s 385 243 m -17 Y s 403 260 m -34 Y s 421 243 m -17 Y s
 438 243 m -17 Y s 456 243 m -17 Y s 474 243 m -17 Y s 491 260 m -34 Y s 509 243
 m -17 Y s 527 243 m -17 Y s 544 243 m -17 Y s 562 243 m -17 Y s 580 260 m -34 Y
 s 597 243 m -17 Y s 615 243 m -17 Y s 633 243 m -17 Y s 650 243 m -17 Y s 668
 260 m -34 Y s 686 243 m -17 Y s 703 243 m -17 Y s 721 243 m -17 Y s 739 243 m
 -17 Y s 756 260 m -34 Y s 774 243 m -17 Y s 791 243 m -17 Y s 809 243 m -17 Y s
 827 243 m -17 Y s 844 260 m -34 Y s 862 243 m -17 Y s 880 243 m -17 Y s 897 243
 m -17 Y s 915 243 m -17 Y s 933 260 m -34 Y s 950 243 m -17 Y s 968 243 m -17 Y
 s 986 243 m -17 Y s 1003 243 m -17 Y s 1021 260 m -34 Y s 1039 243 m -17 Y s
 1056 243 m -17 Y s 1074 243 m -17 Y s 1092 243 m -17 Y s 1109 260 m -34 Y s
 /xs 0 def 
(0)
 /Times-Roman     37 stwn 
 gsave  226 179
 t   0 r  xs 2 div neg 0 t 0 0 m
 /Times-Roman findfont   37 sf 0    0 m 
(0)
 show 
 gr 
 /xs 0 def 
(0.1)
 /Times-Roman     37 stwn 
 gsave  315 179
 t   0 r  xs 2 div neg 0 t 0 0 m
 /Times-Roman findfont   37 sf 0    0 m 
(0.1)
 show 
 gr 
 /xs 0 def 
(0.2)
 /Times-Roman     37 stwn 
 gsave  403 179
 t   0 r  xs 2 div neg 0 t 0 0 m
 /Times-Roman findfont   37 sf 0    0 m 
(0.2)
 show 
 gr 
 /xs 0 def 
(0.3)
 /Times-Roman     37 stwn 
 gsave  491 179
 t   0 r  xs 2 div neg 0 t 0 0 m
 /Times-Roman findfont   37 sf 0    0 m 
(0.3)
 show 
 gr 
 /xs 0 def 
(0.4)
 /Times-Roman     37 stwn 
 gsave  580 179
 t   0 r  xs 2 div neg 0 t 0 0 m
 /Times-Roman findfont   37 sf 0    0 m 
(0.4)
 show 
 gr 
 /xs 0 def 
(0.5)
 /Times-Roman     37 stwn 
 gsave  668 179
 t   0 r  xs 2 div neg 0 t 0 0 m
 /Times-Roman findfont   37 sf 0    0 m 
(0.5)
 show 
 gr 
 /xs 0 def 
(0.6)
 /Times-Roman     37 stwn 
 gsave  756 179
 t   0 r  xs 2 div neg 0 t 0 0 m
 /Times-Roman findfont   37 sf 0    0 m 
(0.6)
 show 
 gr 
 /xs 0 def 
(0.7)
 /Times-Roman     37 stwn 
 gsave  844 179
 t   0 r  xs 2 div neg 0 t 0 0 m
 /Times-Roman findfont   37 sf 0    0 m 
(0.7)
 show 
 gr 
 /xs 0 def 
(0.8)
 /Times-Roman     37 stwn 
 gsave  933 179
 t   0 r  xs 2 div neg 0 t 0 0 m
 /Times-Roman findfont   37 sf 0    0 m 
(0.8)
 show 
 gr 
 /xs 0 def 
(0.9)
 /Times-Roman     37 stwn 
 gsave  1021 179
 t   0 r  xs 2 div neg 0 t 0 0 m
 /Times-Roman findfont   37 sf 0    0 m 
(0.9)
 show 
 gr 
 /xs 0 def 
(1)
 /Times-Roman     37 stwn 
 gsave  1109 179
 t   0 r  xs 2 div neg 0 t 0 0 m
 /Times-Roman findfont   37 sf 0    0 m 
(1)
 show 
 gr  883 431 226 226 C 1132 679 0 0 C
 /xs 0 def 
(x)
 /Times-Roman     38 stwn 
(p)
 /Symbol     27 stwn 
 gsave  668 117
 t   0 r  xs 2 div neg 0 t 0 0 m
 /Times-Roman findfont   38 sf 0    0 m 
(x)
 show 
 currentpoint pop 0 t 
 /Symbol findfont   27 sf 0  -13 m 
(p)
 show 
 gr  883 431 226 226 C 226 441 m 883 X s /w 28
 def /w2 {w 2 div} def /w3 {w 3 div} def 253 441 m20 293 441 m20 337 441 m20 381
 441 m20 425 441 m20 469 441 m20 513 441 m20 558 441 m20 602 441 m20 646 426 m 1
 Y s 646 456 m 1 Y s 632 426 m 28 X s 632 457 m 28 X s 646 441 m20 690 425 m 2 Y
 s 690 456 m 2 Y s 676 425 m 28 X s 676 458 m 28 X s 690 441 m20 734 422 m 5 Y s
 734 456 m 5 Y s 720 422 m 28 X s 720 461 m 28 X s 734 441 m20 778 421 m 6 Y s
 778 456 m 6 Y s 764 421 m 28 X s 764 462 m 28 X s 778 441 m20 822 416 m 11 Y s
 822 456 m 11 Y s 808 416 m 29 X s 808 467 m 29 X s 822 441 m20 867 415 m 12 Y s
 867 456 m 12 Y s 852 415 m 29 X s 852 468 m 29 X s 867 441 m20 911 408 m 19 Y s
 911 456 m 18 Y s 897 408 m 28 X s 897 474 m 28 X s 911 441 m20 955 407 m 20 Y s
 955 456 m 20 Y s 941 407 m 28 X s 941 476 m 28 X s 955 441 m20 999 393 m 34 Y s
 999 456 m 34 Y s 985 393 m 28 X s 985 490 m 28 X s 999 441 m20 1043 385 m 42 Y
 s 1043 456 m 42 Y s 1029 385 m 28 X s 1029 498 m 28 X s 1043 441 m20 1087 290 m
 137 Y s 1087 456 m 137 Y s 1073 290 m 28 X s 1073 593 m 28 X s 1087 441 m20 253
 441 m24 293 441 m24 337 441 m24 381 441 m24 425 441 m24 469 441 m24 513 441 m24
 558 441 m24 602 441 m24 646 426 m 1 Y s 646 456 m 1 Y s 646 441 m24 690 425 m 2
 Y s 690 456 m 2 Y s 690 441 m24 734 422 m 5 Y s 734 456 m 5 Y s 734 441 m24 778
 421 m 6 Y s 778 456 m 6 Y s 778 441 m24 822 416 m 11 Y s 822 456 m 11 Y s 822
 441 m24 867 415 m 12 Y s 867 456 m 12 Y s 867 441 m24 911 408 m 19 Y s 911 456
 m 18 Y s 911 441 m24 955 407 m 20 Y s 955 456 m 20 Y s 955 441 m24 999 393 m 34
 Y s 999 456 m 34 Y s 999 441 m24 1043 385 m 42 Y s 1043 456 m 42 Y s 1043 441
 m24 1087 290 m 137 Y s 1087 456 m 137 Y s 1087 441 m24
 gr  gr 
showpage
end
%%EOF
