%!PS-Adobe-3.0 EPSF-3.0
%%BoundingBox: -1 636 408 843
%%Title: fig5
%%CreationDate: Wed Sep 27 10:49:40 2000
%%Creator: Tgif-4.1.34 by William Chia-Wei Cheng (william@cs.UCLA.edu)
%%ProducedBy: (unknown)
%%Pages: 1
%%DocumentFonts: (atend)
%%EndComments
%%BeginProlog

/tgifdict 51 dict def
tgifdict begin

/TGMAX
 { exch dup 3 1 roll exch dup 3 1 roll gt { pop } { exch pop } ifelse
 } def
/TGMIN
 { exch dup 3 1 roll exch dup 3 1 roll lt { pop } { exch pop } ifelse
 } def
/TGSW { stringwidth pop } def

/bd { bind def } bind def

/GS { gsave } bd
/GR { grestore } bd
/NP { newpath } bd
/CP { closepath } bd
/CHP { charpath } bd
/CT { curveto } bd
/L { lineto } bd
/RL { rlineto } bd
/M { moveto } bd
/RM { rmoveto } bd
/S { stroke } bd
/F { fill } bd
/TR { translate } bd
/RO { rotate } bd
/SC { scale } bd
/MU { mul } bd
/DI { div } bd
/DU { dup } bd
/NE { neg } bd
/AD { add } bd
/SU { sub } bd
/PO { pop } bd
/EX { exch } bd
/CO { concat } bd
/CL { clip } bd
/EC { eoclip } bd
/EF { eofill } bd
/IM { image } bd
/IMM { imagemask } bd
/ARY { array } bd
/SG { setgray } bd
/RG { setrgbcolor } bd
/SD { setdash } bd
/W { setlinewidth } bd
/SM { setmiterlimit } bd
/SLC { setlinecap } bd
/SLJ { setlinejoin } bd
/SH { show } bd
/FF { findfont } bd
/MS { makefont setfont } bd
/AR { arcto 4 {pop} repeat } bd
/CURP { currentpoint } bd
/FLAT { flattenpath strokepath clip newpath } bd
/TGSM { tgiforigctm setmatrix } def
/TGRM { savematrix setmatrix } def

end

%%EndProlog
%%Page: 1 1

%%PageBoundingBox: -1 636 408 843
tgifdict begin
/tgifsavedpage save def

1 SM
1 W

0 SG

72 0 MU 72 11.695 MU TR
72 128 DI 100.000 MU 100 DI DU NE SC

GS

/tgiforigctm matrix currentmatrix def

% TEXT
NP
0 SG
GS
   1 194 TR
   [-0.000 -1.000 1.000 -0.000 0 0] CO
   1 NE 194 NE TR
GR
   GS
      1 W
      1 194 TR
      [-0.000 -1.000 1.000 -0.000 0 0] CO
      0 29 M
      GS
            0 SG
            /Times-Roman FF [31 0 0 -31 0 0] MS
            (\(x\) / u) SH
      GR
   GR

% POLYGON/CLOSED-SPLINE
0 SG
NP
   51 54 M
   51 54 L
   51 54 L
CP
GS
   EF
GR
GS
   10.000 W
   S
GR

% POLYGON/CLOSED-SPLINE
0 SG
NP
   51 54 M
   51 54 L
   51 54 L
CP
GS
   EF
GR
GS
   10.000 W
   S
GR

% POLYGON/CLOSED-SPLINE
0 SG
NP
   88 7 M
   90 7 L
   90 305 L
   90 306 L
   88 306 L
   88 8 L
CP
GS
   EF
GR
GS
   S
GR

% POLYGON/CLOSED-SPLINE
0 SG
NP
   715 7 M
   717 7 L
   717 305 L
   717 306 L
   715 306 L
   715 8 L
CP
GS
   EF
GR
GS
   S
GR

% POLYGON/CLOSED-SPLINE
0 SG
NP
   88 7 M
   90 7 L
   104 7 L
   104 8 L
   102 8 L
   88 8 L
CP
GS
   EF
GR
GS
   S
GR

% TEXT
NP
0 SG
   GS
      1 W
      54 18 M
      GS
            0 SG
            /Times-Roman FF [20 0 0 -20 0 0] MS
            (1.4) SH
      GR
   GR

% POLYGON/CLOSED-SPLINE
0 SG
NP
   88 50 M
   90 50 L
   104 50 L
   104 51 L
   102 51 L
   88 51 L
CP
GS
   EF
GR
GS
   S
GR

% TEXT
NP
0 SG
   GS
      1 W
      54 61 M
      GS
            0 SG
            /Times-Roman FF [20 0 0 -20 0 0] MS
            (1.2) SH
      GR
   GR

% POLYGON/CLOSED-SPLINE
0 SG
NP
   88 93 M
   102 93 L
   104 93 L
   104 93 L
   90 93 L
   88 93 L
CP
GS
   EF
GR
GS
   S
GR

% TEXT
NP
0 SG
   GS
      1 W
      54 103 M
      GS
            0 SG
            /Times-Roman FF [20 0 0 -20 0 0] MS
            (1.0) SH
      GR
   GR

% POLYGON/CLOSED-SPLINE
0 SG
NP
   88 135 M
   90 135 L
   104 135 L
   104 136 L
   102 136 L
   88 136 L
CP
GS
   EF
GR
GS
   S
GR

% TEXT
NP
0 SG
   GS
      1 W
      54 146 M
      GS
            0 SG
            /Times-Roman FF [20 0 0 -20 0 0] MS
            (0.8) SH
      GR
   GR

% POLYGON/CLOSED-SPLINE
0 SG
NP
   88 177 M
   90 177 L
   104 177 L
   104 178 L
   102 178 L
   88 178 L
CP
GS
   EF
GR
GS
   S
GR

% TEXT
NP
0 SG
   GS
      1 W
      54 188 M
      GS
            0 SG
            /Times-Roman FF [20 0 0 -20 0 0] MS
            (0.6) SH
      GR
   GR

% POLYGON/CLOSED-SPLINE
0 SG
NP
   88 220 M
   90 220 L
   104 220 L
   104 221 L
   102 221 L
   88 221 L
CP
GS
   EF
GR
GS
   S
GR

% TEXT
NP
0 SG
   GS
      1 W
      54 231 M
      GS
            0 SG
            /Times-Roman FF [20 0 0 -20 0 0] MS
            (0.4) SH
      GR
   GR

% POLYGON/CLOSED-SPLINE
0 SG
NP
   88 263 M
   90 263 L
   104 263 L
   104 264 L
   102 264 L
   88 264 L
CP
GS
   EF
GR
GS
   S
GR

% TEXT
NP
0 SG
   GS
      1 W
      54 274 M
      GS
            0 SG
            /Times-Roman FF [20 0 0 -20 0 0] MS
            (0.2) SH
      GR
   GR

% POLYGON/CLOSED-SPLINE
0 SG
NP
   88 306 M
   90 306 L
   104 306 L
   104 306 L
   102 306 L
   88 306 L
CP
GS
   EF
GR
GS
   S
GR

% TEXT
NP
0 SG
   GS
      1 W
      54 317 M
      GS
            0 SG
            /Times-Roman FF [20 0 0 -20 0 0] MS
            (0.0) SH
      GR
   GR

% POLYGON/CLOSED-SPLINE
0 SG
NP
   88 306 M
   90 306 L
   717 306 L
   717 306 L
   715 306 L
   88 306 L
CP
GS
   EF
GR
GS
   S
GR

% POLYGON/CLOSED-SPLINE
0 SG
NP
   88 7 M
   90 7 L
   717 7 L
   717 8 L
   715 8 L
   88 8 L
CP
GS
   EF
GR
GS
   S
GR

% POLYGON/CLOSED-SPLINE
0 SG
NP
   715 306 M
   715 299 L
   717 299 L
   717 300 L
   717 306 L
   715 306 L
CP
GS
   EF
GR
GS
   S
GR

% TEXT
NP
0 SG
   GS
      1 W
      702 325 M
      GS
            0 SG
            /Times-Roman FF [20 0 0 -20 0 0] MS
            (1.0) SH
      GR
   GR

% POLYGON/CLOSED-SPLINE
0 SG
NP
   684 306 M
   684 302 L
   686 302 L
   686 303 L
   686 306 L
   684 306 L
CP
GS
   EF
GR
GS
   S
GR

% POLYGON/CLOSED-SPLINE
0 SG
NP
   652 306 M
   652 302 L
   654 302 L
   654 303 L
   654 306 L
   652 306 L
CP
GS
   EF
GR
GS
   S
GR

% POLYGON/CLOSED-SPLINE
0 SG
NP
   621 306 M
   621 302 L
   623 302 L
   623 303 L
   623 306 L
   621 306 L
CP
GS
   EF
GR
GS
   S
GR

% POLYGON/CLOSED-SPLINE
0 SG
NP
   590 306 M
   590 302 L
   591 302 L
   591 303 L
   591 306 L
   590 306 L
CP
GS
   EF
GR
GS
   S
GR

% POLYGON/CLOSED-SPLINE
0 SG
NP
   559 306 M
   559 299 L
   560 299 L
   560 300 L
   560 306 L
   559 306 L
CP
GS
   EF
GR
GS
   S
GR

% TEXT
NP
0 SG
   GS
      1 W
      546 325 M
      GS
            0 SG
            /Times-Roman FF [20 0 0 -20 0 0] MS
            (0.8) SH
      GR
   GR

% POLYGON/CLOSED-SPLINE
0 SG
NP
   527 306 M
   527 302 L
   529 302 L
   529 303 L
   529 306 L
   527 306 L
CP
GS
   EF
GR
GS
   S
GR

% POLYGON/CLOSED-SPLINE
0 SG
NP
   496 306 M
   496 302 L
   498 302 L
   498 303 L
   498 306 L
   496 306 L
CP
GS
   EF
GR
GS
   S
GR

% POLYGON/CLOSED-SPLINE
0 SG
NP
   464 302 M
   466 302 L
   466 306 L
   466 306 L
   464 306 L
   464 303 L
CP
GS
   EF
GR
GS
   S
GR

% POLYGON/CLOSED-SPLINE
0 SG
NP
   433 306 M
   433 302 L
   435 302 L
   435 303 L
   435 306 L
   433 306 L
CP
GS
   EF
GR
GS
   S
GR

% POLYGON/CLOSED-SPLINE
0 SG
NP
   402 306 M
   402 299 L
   403 299 L
   403 300 L
   403 306 L
   402 306 L
CP
GS
   EF
GR
GS
   S
GR

% TEXT
NP
0 SG
   GS
      1 W
      389 325 M
      GS
            0 SG
            /Times-Roman FF [20 0 0 -20 0 0] MS
            (0.6) SH
      GR
   GR

% POLYGON/CLOSED-SPLINE
0 SG
NP
   370 306 M
   370 302 L
   372 302 L
   372 303 L
   372 306 L
   370 306 L
CP
GS
   EF
GR
GS
   S
GR

% POLYGON/CLOSED-SPLINE
0 SG
NP
   339 306 M
   339 302 L
   341 302 L
   341 303 L
   341 306 L
   339 306 L
CP
GS
   EF
GR
GS
   S
GR

% POLYGON/CLOSED-SPLINE
0 SG
NP
   308 306 M
   308 302 L
   309 302 L
   309 303 L
   309 306 L
   308 306 L
CP
GS
   EF
GR
GS
   S
GR

% POLYGON/CLOSED-SPLINE
0 SG
NP
   277 306 M
   277 302 L
   278 302 L
   278 303 L
   278 306 L
   277 306 L
CP
GS
   EF
GR
GS
   S
GR

% POLYGON/CLOSED-SPLINE
0 SG
NP
   245 306 M
   245 299 L
   247 299 L
   247 300 L
   247 306 L
   245 306 L
CP
GS
   EF
GR
GS
   S
GR

% TEXT
NP
0 SG
   GS
      1 W
      232 325 M
      GS
            0 SG
            /Times-Roman FF [20 0 0 -20 0 0] MS
            (0.4) SH
      GR
   GR

% POLYGON/CLOSED-SPLINE
0 SG
NP
   214 306 M
   214 302 L
   216 302 L
   216 303 L
   216 306 L
   214 306 L
CP
GS
   EF
GR
GS
   S
GR

% POLYGON/CLOSED-SPLINE
0 SG
NP
   182 306 M
   182 302 L
   184 302 L
   184 303 L
   184 306 L
   182 306 L
CP
GS
   EF
GR
GS
   S
GR

% POLYGON/CLOSED-SPLINE
0 SG
NP
   151 306 M
   151 302 L
   153 302 L
   153 303 L
   153 306 L
   151 306 L
CP
GS
   EF
GR
GS
   S
GR

% POLYGON/CLOSED-SPLINE
0 SG
NP
   120 306 M
   120 302 L
   121 302 L
   121 303 L
   121 306 L
   120 306 L
CP
GS
   EF
GR
GS
   S
GR

% POLYGON/CLOSED-SPLINE
0 SG
NP
   88 306 M
   88 299 L
   90 299 L
   90 300 L
   90 306 L
   88 306 L
CP
GS
   EF
GR
GS
   S
GR

% TEXT
NP
0 SG
   GS
      1 W
      76 325 M
      GS
            0 SG
            /Times-Roman FF [20 0 0 -20 0 0] MS
            (0.2) SH
      GR
   GR

% TEXT
NP
0 SG
   GS
      1 W
      385 348 M
      GS
            0 SG
            /Times-Roman FF [31 0 0 -31 0 0] MS
            (x) SH
      GR
   GR

% TEXT
NP
0 SG
   GS
      1 W
      405 357 M
      GS
            0 SG
            /Times-Roman FF [21 0 0 -21 0 0] MS
            (Bj) SH
      GR
   GR

% POLYGON/CLOSED-SPLINE
0 SG
NP
   88 82 M
   90 82 L
   93 82 L
   93 83 L
   91 83 L
   88 83 L
CP
GS
   EF
GR
GS
   S
GR

% POLYGON/CLOSED-SPLINE
0 SG
NP
   91 82 M
   93 82 L
   104 83 L
   104 84 L
   102 84 L
   91 83 L
CP
GS
   EF
GR
GS
   S
GR

% POLYGON/CLOSED-SPLINE
0 SG
NP
   102 83 M
   104 83 L
   114 84 L
   114 85 L
   112 85 L
   102 84 L
CP
GS
   EF
GR
GS
   S
GR

% POLYGON/CLOSED-SPLINE
0 SG
NP
   112 84 M
   114 84 L
   125 86 L
   125 87 L
   123 87 L
   112 85 L
CP
GS
   EF
GR
GS
   S
GR

% POLYGON/CLOSED-SPLINE
0 SG
NP
   123 86 M
   125 86 L
   136 87 L
   136 88 L
   134 88 L
   123 87 L
CP
GS
   EF
GR
GS
   S
GR

% POLYGON/CLOSED-SPLINE
0 SG
NP
   134 87 M
   136 87 L
   147 89 L
   147 90 L
   145 90 L
   134 88 L
CP
GS
   EF
GR
GS
   S
GR

% POLYGON/CLOSED-SPLINE
0 SG
NP
   145 89 M
   147 89 L
   159 91 L
   159 92 L
   157 92 L
   145 90 L
CP
GS
   EF
GR
GS
   S
GR

% POLYGON/CLOSED-SPLINE
0 SG
NP
   157 91 M
   159 91 L
   171 93 L
   171 94 L
   169 94 L
   157 92 L
CP
GS
   EF
GR
GS
   S
GR

% POLYGON/CLOSED-SPLINE
0 SG
NP
   169 93 M
   171 93 L
   182 95 L
   182 96 L
   180 96 L
   169 94 L
CP
GS
   EF
GR
GS
   S
GR

% POLYGON/CLOSED-SPLINE
0 SG
NP
   180 95 M
   182 95 L
   194 97 L
   194 98 L
   192 98 L
   180 96 L
CP
GS
   EF
GR
GS
   S
GR

% POLYGON/CLOSED-SPLINE
0 SG
NP
   192 97 M
   194 97 L
   206 99 L
   206 100 L
   204 100 L
   192 98 L
CP
GS
   EF
GR
GS
   S
GR

% POLYGON/CLOSED-SPLINE
0 SG
NP
   204 99 M
   206 99 L
   218 102 L
   218 102 L
   216 102 L
   204 100 L
CP
GS
   EF
GR
GS
   S
GR

% POLYGON/CLOSED-SPLINE
0 SG
NP
   216 102 M
   218 102 L
   231 104 L
   231 105 L
   229 105 L
   216 102 L
CP
GS
   EF
GR
GS
   S
GR

% POLYGON/CLOSED-SPLINE
0 SG
NP
   229 104 M
   231 104 L
   243 106 L
   243 107 L
   241 107 L
   229 105 L
CP
GS
   EF
GR
GS
   S
GR

% POLYGON/CLOSED-SPLINE
0 SG
NP
   241 106 M
   243 106 L
   256 109 L
   256 110 L
   254 110 L
   241 107 L
CP
GS
   EF
GR
GS
   S
GR

% POLYGON/CLOSED-SPLINE
0 SG
NP
   253 109 M
   256 109 L
   268 112 L
   268 113 L
   266 113 L
   253 110 L
CP
GS
   EF
GR
GS
   S
GR

% POLYGON/CLOSED-SPLINE
0 SG
NP
   266 112 M
   268 112 L
   281 114 L
   281 115 L
   279 115 L
   266 113 L
CP
GS
   EF
GR
GS
   S
GR

% POLYGON/CLOSED-SPLINE
0 SG
NP
   279 114 M
   281 114 L
   294 117 L
   294 118 L
   291 118 L
   279 115 L
CP
GS
   EF
GR
GS
   S
GR

% POLYGON/CLOSED-SPLINE
0 SG
NP
   291 117 M
   294 117 L
   306 120 L
   306 121 L
   304 121 L
   291 118 L
CP
GS
   EF
GR
GS
   S
GR

% POLYGON/CLOSED-SPLINE
0 SG
NP
   304 120 M
   306 120 L
   319 124 L
   319 125 L
   317 125 L
   304 121 L
CP
GS
   EF
GR
GS
   S
GR

% POLYGON/CLOSED-SPLINE
0 SG
NP
   317 124 M
   319 124 L
   332 127 L
   332 128 L
   330 128 L
   317 125 L
CP
GS
   EF
GR
GS
   S
GR

% POLYGON/CLOSED-SPLINE
0 SG
NP
   330 127 M
   332 127 L
   345 130 L
   345 131 L
   343 131 L
   330 128 L
CP
GS
   EF
GR
GS
   S
GR

% POLYGON/CLOSED-SPLINE
0 SG
NP
   343 130 M
   345 130 L
   358 133 L
   358 134 L
   355 134 L
   343 131 L
CP
GS
   EF
GR
GS
   S
GR

% POLYGON/CLOSED-SPLINE
0 SG
NP
   355 133 M
   358 133 L
   370 136 L
   370 137 L
   368 137 L
   355 134 L
CP
GS
   EF
GR
GS
   S
GR

% POLYGON/CLOSED-SPLINE
0 SG
NP
   368 136 M
   370 136 L
   383 139 L
   383 140 L
   381 140 L
   368 137 L
CP
GS
   EF
GR
GS
   S
GR

% POLYGON/CLOSED-SPLINE
0 SG
NP
   381 139 M
   383 139 L
   395 142 L
   395 143 L
   393 143 L
   381 140 L
CP
GS
   EF
GR
GS
   S
GR

% POLYGON/CLOSED-SPLINE
0 SG
NP
   393 142 M
   395 142 L
   408 146 L
   408 147 L
   406 147 L
   393 143 L
CP
GS
   EF
GR
GS
   S
GR

% POLYGON/CLOSED-SPLINE
0 SG
NP
   406 146 M
   408 146 L
   420 149 L
   420 150 L
   418 150 L
   406 147 L
CP
GS
   EF
GR
GS
   S
GR

% POLYGON/CLOSED-SPLINE
0 SG
NP
   418 149 M
   420 149 L
   433 152 L
   433 153 L
   431 153 L
   418 150 L
CP
GS
   EF
GR
GS
   S
GR

% POLYGON/CLOSED-SPLINE
0 SG
NP
   431 152 M
   433 152 L
   445 156 L
   445 157 L
   443 157 L
   431 153 L
CP
GS
   EF
GR
GS
   S
GR

% POLYGON/CLOSED-SPLINE
0 SG
NP
   443 156 M
   445 156 L
   457 159 L
   457 160 L
   455 160 L
   443 157 L
CP
GS
   EF
GR
GS
   S
GR

% POLYGON/CLOSED-SPLINE
0 SG
NP
   455 159 M
   457 159 L
   469 162 L
   469 163 L
   467 163 L
   455 160 L
CP
GS
   EF
GR
GS
   S
GR

% POLYGON/CLOSED-SPLINE
0 SG
NP
   467 162 M
   469 162 L
   480 166 L
   480 167 L
   478 167 L
   467 163 L
CP
GS
   EF
GR
GS
   S
GR

% POLYGON/CLOSED-SPLINE
0 SG
NP
   478 166 M
   480 166 L
   492 169 L
   492 170 L
   490 170 L
   478 167 L
CP
GS
   EF
GR
GS
   S
GR

% POLYGON/CLOSED-SPLINE
0 SG
NP
   490 169 M
   492 169 L
   503 171 L
   503 173 L
   501 173 L
   490 170 L
CP
GS
   EF
GR
GS
   S
GR

% POLYGON/CLOSED-SPLINE
0 SG
NP
   501 171 M
   503 171 L
   515 175 L
   515 176 L
   513 176 L
   501 173 L
CP
GS
   EF
GR
GS
   S
GR

% POLYGON/CLOSED-SPLINE
0 SG
NP
   513 175 M
   515 175 L
   526 178 L
   526 179 L
   524 179 L
   513 176 L
CP
GS
   EF
GR
GS
   S
GR

% POLYGON/CLOSED-SPLINE
0 SG
NP
   524 178 M
   526 178 L
   537 181 L
   537 182 L
   535 182 L
   524 179 L
CP
GS
   EF
GR
GS
   S
GR

% POLYGON/CLOSED-SPLINE
0 SG
NP
   535 181 M
   537 181 L
   547 184 L
   547 185 L
   545 185 L
   535 182 L
CP
GS
   EF
GR
GS
   S
GR

% POLYGON/CLOSED-SPLINE
0 SG
NP
   545 184 M
   547 184 L
   558 187 L
   558 188 L
   556 188 L
   545 185 L
CP
GS
   EF
GR
GS
   S
GR

% POLYGON/CLOSED-SPLINE
0 SG
NP
   556 187 M
   558 187 L
   568 190 L
   568 191 L
   566 191 L
   556 188 L
CP
GS
   EF
GR
GS
   S
GR

% POLYGON/CLOSED-SPLINE
0 SG
NP
   566 190 M
   568 190 L
   578 193 L
   578 194 L
   576 194 L
   566 191 L
CP
GS
   EF
GR
GS
   S
GR

% POLYGON/CLOSED-SPLINE
0 SG
NP
   576 193 M
   578 193 L
   587 196 L
   587 197 L
   585 197 L
   576 194 L
CP
GS
   EF
GR
GS
   S
GR

% POLYGON/CLOSED-SPLINE
0 SG
NP
   585 196 M
   587 196 L
   597 199 L
   597 200 L
   595 200 L
   585 197 L
CP
GS
   EF
GR
GS
   S
GR

% POLYGON/CLOSED-SPLINE
0 SG
NP
   595 199 M
   597 199 L
   606 201 L
   606 202 L
   604 202 L
   595 200 L
CP
GS
   EF
GR
GS
   S
GR

% POLYGON/CLOSED-SPLINE
0 SG
NP
   604 201 M
   606 201 L
   614 204 L
   614 204 L
   612 204 L
   604 202 L
CP
GS
   EF
GR
GS
   S
GR

% POLYGON/CLOSED-SPLINE
0 SG
NP
   612 204 M
   614 204 L
   623 206 L
   623 207 L
   621 207 L
   612 204 L
CP
GS
   EF
GR
GS
   S
GR

% POLYGON/CLOSED-SPLINE
0 SG
NP
   621 206 M
   623 206 L
   631 209 L
   631 210 L
   629 210 L
   621 207 L
CP
GS
   EF
GR
GS
   S
GR

% POLYGON/CLOSED-SPLINE
0 SG
NP
   629 209 M
   631 209 L
   639 211 L
   639 212 L
   637 212 L
   629 210 L
CP
GS
   EF
GR
GS
   S
GR

% POLYGON/CLOSED-SPLINE
0 SG
NP
   637 211 M
   639 211 L
   646 213 L
   646 214 L
   644 214 L
   637 212 L
CP
GS
   EF
GR
GS
   S
GR

% POLYGON/CLOSED-SPLINE
0 SG
NP
   644 213 M
   646 213 L
   654 216 L
   654 217 L
   652 217 L
   644 214 L
CP
GS
   EF
GR
GS
   S
GR

% POLYGON/CLOSED-SPLINE
0 SG
NP
   652 216 M
   654 216 L
   660 218 L
   660 219 L
   658 219 L
   652 217 L
CP
GS
   EF
GR
GS
   S
GR

% POLYGON/CLOSED-SPLINE
0 SG
NP
   658 218 M
   660 218 L
   667 220 L
   667 221 L
   665 221 L
   658 219 L
CP
GS
   EF
GR
GS
   S
GR

% POLYGON/CLOSED-SPLINE
0 SG
NP
   665 220 M
   667 220 L
   673 222 L
   673 223 L
   671 223 L
   665 221 L
CP
GS
   EF
GR
GS
   S
GR

% POLYGON/CLOSED-SPLINE
0 SG
NP
   671 222 M
   673 222 L
   678 225 L
   678 226 L
   676 226 L
   671 223 L
CP
GS
   EF
GR
GS
   S
GR

% POLYGON/CLOSED-SPLINE
0 SG
NP
   676 225 M
   678 225 L
   684 226 L
   684 227 L
   682 227 L
   676 226 L
CP
GS
   EF
GR
GS
   S
GR

% POLYGON/CLOSED-SPLINE
0 SG
NP
   682 226 M
   684 226 L
   689 229 L
   689 230 L
   687 230 L
   682 227 L
CP
GS
   EF
GR
GS
   S
GR

% POLYGON/CLOSED-SPLINE
0 SG
NP
   687 229 M
   689 229 L
   693 231 L
   693 232 L
   691 232 L
   687 230 L
CP
GS
   EF
GR
GS
   S
GR

% POLYGON/CLOSED-SPLINE
0 SG
NP
   691 231 M
   693 231 L
   698 232 L
   698 233 L
   696 233 L
   691 232 L
CP
GS
   EF
GR
GS
   S
GR

% POLYGON/CLOSED-SPLINE
0 SG
NP
   696 232 M
   698 232 L
   701 234 L
   701 235 L
   699 235 L
   696 233 L
CP
GS
   EF
GR
GS
   S
GR

% POLYGON/CLOSED-SPLINE
0 SG
NP
   699 234 M
   701 234 L
   705 236 L
   705 237 L
   703 237 L
   699 235 L
CP
GS
   EF
GR
GS
   S
GR

% POLYGON/CLOSED-SPLINE
0 SG
NP
   703 236 M
   705 236 L
   708 238 L
   708 238 L
   706 238 L
   703 237 L
CP
GS
   EF
GR
GS
   S
GR

% POLYGON/CLOSED-SPLINE
0 SG
NP
   706 238 M
   708 238 L
   710 239 L
   710 240 L
   708 240 L
   706 238 L
CP
GS
   EF
GR
GS
   S
GR

% POLYGON/CLOSED-SPLINE
0 SG
NP
   708 239 M
   710 239 L
   713 241 L
   713 242 L
   710 242 L
   708 240 L
CP
GS
   EF
GR
GS
   S
GR

% POLYGON/CLOSED-SPLINE
0 SG
NP
   710 241 M
   713 241 L
   714 243 L
   714 244 L
   712 244 L
   710 242 L
CP
GS
   EF
GR
GS
   S
GR

% POLYGON/CLOSED-SPLINE
0 SG
NP
   712 243 M
   714 243 L
   715 246 L
   715 247 L
   713 247 L
   712 244 L
CP
GS
   EF
GR
GS
   S
GR

% POLYGON/CLOSED-SPLINE
0 SG
NP
   713 246 M
   715 246 L
   716 249 L
   716 250 L
   714 250 L
   713 247 L
CP
GS
   EF
GR
GS
   S
GR

% POLYGON/CLOSED-SPLINE
0 SG
NP
   128 73 M
   129 73 L
   129 122 L
   129 123 L
   128 123 L
   128 74 L
CP
GS
   EF
GR
GS
   S
GR

% POLYGON/CLOSED-SPLINE
0 SG
NP
   206 93 M
   207 93 L
   207 126 L
   207 127 L
   206 127 L
   206 94 L
CP
GS
   EF
GR
GS
   S
GR

% POLYGON/CLOSED-SPLINE
0 SG
NP
   268 76 M
   270 76 L
   270 107 L
   270 108 L
   268 108 L
   268 77 L
CP
GS
   EF
GR
GS
   S
GR

% POLYGON/CLOSED-SPLINE
0 SG
NP
   355 78 M
   356 78 L
   356 111 L
   356 112 L
   355 112 L
   355 79 L
CP
GS
   EF
GR
GS
   S
GR

% POLYGON/CLOSED-SPLINE
0 SG
NP
   433 76 M
   435 76 L
   435 113 L
   435 114 L
   433 114 L
   433 77 L
CP
GS
   EF
GR
GS
   S
GR

% POLYGON/CLOSED-SPLINE
0 SG
NP
   527 114 M
   529 114 L
   529 156 L
   529 157 L
   527 157 L
   527 115 L
CP
GS
   EF
GR
GS
   S
GR

% POLYGON/CLOSED-SPLINE
0 SG
NP
   582 131 M
   584 131 L
   584 184 L
   584 185 L
   582 185 L
   582 132 L
CP
GS
   EF
GR
GS
   S
GR

% POLYGON/CLOSED-SPLINE
0 SG
NP
   684 152 M
   685 152 L
   685 233 L
   685 234 L
   684 234 L
   684 153 L
CP
GS
   EF
GR
GS
   S
GR

% POLYGON/CLOSED-SPLINE
0 SG
NP
   135 99 M
   135 101 L
   133 102 L
   131 102 L
   128 102 L
   126 102 L
   124 102 L
   122 101 L
   122 99 L
   122 98 L
   124 97 L
   126 96 L
   128 96 L
   131 96 L
   133 97 L
   135 98 L
CP
GS
   EF
GR
GS
   S
GR

% POLYGON/CLOSED-SPLINE
0 SG
NP
   213 110 M
   213 111 L
   211 112 L
   209 113 L
   207 113 L
   204 113 L
   202 112 L
   200 111 L
   200 110 L
   200 108 L
   202 107 L
   204 107 L
   207 106 L
   209 107 L
   211 107 L
   213 108 L
CP
GS
   EF
GR
GS
   S
GR

% POLYGON/CLOSED-SPLINE
0 SG
NP
   276 93 M
   276 94 L
   274 95 L
   272 96 L
   269 96 L
   267 96 L
   264 95 L
   263 94 L
   262 93 L
   263 92 L
   264 91 L
   267 90 L
   269 90 L
   272 90 L
   274 91 L
   276 92 L
CP
GS
   EF
GR
GS
   S
GR

% POLYGON/CLOSED-SPLINE
0 SG
NP
   362 95 M
   362 96 L
   360 98 L
   358 98 L
   355 99 L
   353 98 L
   351 98 L
   349 96 L
   349 95 L
   349 94 L
   351 93 L
   353 92 L
   355 92 L
   358 92 L
   360 93 L
   362 94 L
CP
GS
   EF
GR
GS
   S
GR

% POLYGON/CLOSED-SPLINE
0 SG
NP
   441 97 M
   440 99 L
   439 100 L
   437 100 L
   434 101 L
   431 100 L
   429 100 L
   428 99 L
   427 97 L
   428 96 L
   429 95 L
   431 94 L
   434 94 L
   437 94 L
   439 95 L
   440 96 L
CP
GS
   EF
GR
GS
   S
GR

% POLYGON/CLOSED-SPLINE
0 SG
NP
   535 136 M
   534 137 L
   533 138 L
   531 138 L
   528 139 L
   525 138 L
   523 138 L
   522 137 L
   521 136 L
   522 134 L
   523 133 L
   525 133 L
   528 132 L
   531 133 L
   533 133 L
   534 134 L
CP
GS
   EF
GR
GS
   S
GR

% POLYGON/CLOSED-SPLINE
0 SG
NP
   590 157 M
   589 158 L
   588 159 L
   586 160 L
   583 160 L
   580 160 L
   578 159 L
   577 158 L
   576 157 L
   577 156 L
   578 154 L
   580 154 L
   583 153 L
   586 154 L
   588 154 L
   589 156 L
CP
GS
   EF
GR
GS
   S
GR

% POLYGON/CLOSED-SPLINE
0 SG
NP
   691 191 M
   691 192 L
   689 193 L
   687 194 L
   684 194 L
   682 194 L
   680 193 L
   678 192 L
   678 191 L
   678 190 L
   680 188 L
   682 188 L
   684 187 L
   687 188 L
   689 188 L
   691 190 L
CP
GS
   EF
GR
GS
   S
GR

% TEXT
NP
0 SG
GS
   1 223 TR
   [-0.000 -1.000 1.000 -0.000 0 0] CO
   1 NE 223 NE TR
GR
   GS
      1 W
      1 223 TR
      [-0.000 -1.000 1.000 -0.000 0 0] CO
      0 29 M
      GS
            0 SG
            /Times-Roman FF [31 0 0 -31 0 0] MS
            (u) SH
      GR
   GR

% TEXT
NP
0 SG
GS
   25 208 TR
   [-0.000 -1.000 1.000 -0.000 0 0] CO
   25 NE 208 NE TR
GR
   GS
      1 W
      25 208 TR
      [-0.000 -1.000 1.000 -0.000 0 0] CO
      0 15 M
      GS
            0 SG
            /Times-Roman FF [17 0 0 -17 0 0] MS
            (K) SH
      GR
   GR

% TEXT
NP
0 SG
GS
   27 117 TR
   [-0.000 -1.000 1.000 -0.000 0 0] CO
   27 NE 117 NE TR
GR
   GS
      1 W
      27 117 TR
      [-0.000 -1.000 1.000 -0.000 0 0] CO
      0 14 M
      GS
            0 SG
            /Symbol FF [20 0 0 -20 0 0] MS
            (p) SH
      GR
   GR

% TEXT
NP
0 SG
GS
   1 106 TR
   [-0.000 -1.000 1.000 -0.000 0 0] CO
   1 NE 106 NE TR
GR
   GS
      1 W
      1 106 TR
      [-0.000 -1.000 1.000 -0.000 0 0] CO
      0 29 M
      GS
            0 SG
            /Times-Roman FF [31 0 0 -31 0 0] MS
            (\(x\)) SH
      GR
   GR

GR
tgifsavedpage restore
end
showpage

%%Trailer
%MatchingCreationDate: Wed Sep 27 10:49:40 2000
%%DocumentFonts: Symbol
%%+ Times-Roman
%%EOF
