%!PS-Adobe-2.0 EPSF-2.0
%%BoundingBox: 0 0 510 567
%%Title: x_vs_q2.eps
%%Creator: HIGZ Version 1.29/04
%%CreationDate: 2016/09/06   12.13
%%EndComments
%%BeginProlog
80 dict begin
/s {stroke} def /l {lineto} def /m {moveto} def /t {translate} def
/sw {stringwidth} def /r {rotate} def /rl {roll}  def /R {repeat} def
/d {rlineto} def /rm {rmoveto} def /gr {grestore} def /f {eofill} def
/c {setrgbcolor} def /lw {setlinewidth} def /sd {setdash} def
/cl {closepath} def /sf {scalefont setfont} def /black {0 setgray} def
/box {m dup 0 exch d exch 0 d 0 exch neg d cl} def
/NC{systemdict begin initclip end}def/C{NC box clip newpath}def
/bl {box s} def /bf {box f} def /Y { 0 exch d} def /X { 0 d} def 
/mp {newpath /y exch def /x exch def} def
/side {[w .77 mul w .23 mul] .385 w mul sd w 0 l currentpoint t -144 r} def
/mr {mp x y w2 0 360 arc} def /m24 {mr s} def /m20 {mr f} def
/mb {mp x y w2 add m w2 neg 0 d 0 w neg d w 0 d 0 w d cl} def
/mt {mp x y w2 add m w2 neg w neg d w 0 d cl} def
/m21 {mb f} def /m25 {mb s} def /m22 {mt f} def /m26  {mt s} def
/m23 {mp x y w2 sub m w2 w d w neg 0 d cl f} def
/m27 {mp x y w2 add m w3 neg w2 neg d w3 w2 neg d w3  w2 d cl s} def
/m28 {mp x w2 sub y w2 sub w3 add m w3 0 d 0 w3 neg d w3 0 d 0 w3 d w3 0 d
 0 w3 d w3 neg 0 d 0 w3 d w3 neg 0 d
 0 w3 neg d w3 neg 0 d cl s } def
/m29 {mp gsave x w2 sub y w2 add w3 sub m currentpoint t
 4 {side} repeat cl fill gr} def
/m30 {mp gsave x w2 sub y w2 add w3 sub m currentpoint t
 5 {side} repeat s gr} def
/m31 {mp x y w2 sub m 0 w d x w2 sub y m w 0 d
 x w2 sub y w2 add m w w neg d x w2 sub y w2
 sub m w w d s} def
/m2 {mp x y w2 sub m 0 w d x w2 sub y m w 0 d s} def
/m5 {mp x w2 sub y w2 sub m w w d x w2 sub y w2 add m w w neg d s} def
/reencdict 24 dict def /ReEncode {reencdict begin /nco&na exch def
/nfnam exch def /basefontname exch def /basefontdict basefontname findfont def
/newfont basefontdict maxlength dict def basefontdict {exch dup /FID ne
{dup /Encoding eq {exch dup length array copy newfont 3 1 roll put} {exch
newfont 3 1 roll put} ifelse} {pop pop} ifelse } forall newfont
/FontName nfnam put nco&na aload pop nco&na length 2 idiv {newfont
/Encoding get 3 1 roll put} repeat nfnam newfont definefont pop end } def
/accvec [ 176 /agrave 181 /Agrave 190 /acircumflex 192 /Acircumflex
201 /adieresis 204 /Adieresis 209 /ccedilla 210 /Ccedilla 211 /eacute
212 /Eacute 213 /egrave 214 /Egrave 215 /ecircumflex 216 /Ecircumflex
217 /edieresis 218 /Edieresis 219 /icircumflex 220 /Icircumflex
221 /idieresis 222 /Idieresis 223 /ntilde 224 /Ntilde 226 /ocircumflex
228 /Ocircumflex 229 /odieresis 230 /Odieresis 231 /ucircumflex 236 /Ucircumflex
237 /udieresis 238 /Udieresis 239 /aring 242 /Aring 243 /ydieresis
244 /Ydieresis 246 /aacute 247 /Aacute 252 /ugrave 253 /Ugrave] def
/Times-Roman /Times-Roman accvec ReEncode
/Times-Italic /Times-Italic accvec ReEncode
/Times-Bold /Times-Bold accvec ReEncode
/Times-BoldItalic /Times-BoldItalic accvec ReEncode
/Helvetica /Helvetica accvec ReEncode
/Helvetica-Oblique /Helvetica-Oblique accvec ReEncode
/Helvetica-Bold /Helvetica-Bold accvec ReEncode
/Helvetica-BoldOblique /Helvetica-BoldOblique  accvec ReEncode
/Courier /Courier accvec ReEncode
/Courier-Oblique /Courier-Oblique accvec ReEncode
/Courier-Bold /Courier-Bold accvec ReEncode
/Courier-BoldOblique /Courier-BoldOblique accvec ReEncode
/oshow {gsave [] 0 sd true charpath stroke gr} def
/stwn { /fs exch def /fn exch def /text exch def fn findfont fs sf
 text sw pop xs add /xs exch def} def
/stwb { /fs exch def /fn exch def /nbas exch def /textf exch def
textf length /tlen exch def nbas tlen gt {/nbas tlen  def} if
fn findfont fs sf textf dup length nbas sub nbas getinterval sw
pop neg xs add /xs exch def} def
/accspe [ 65 /plusminus 66 /bar 67 /existential 68 /universal
69 /exclam 70 /numbersign 71 /greater 72 /question 73 /integral
74 /colon 75 /semicolon 76 /less 77 /bracketleft 78 /bracketright
79 /greaterequal 80 /braceleft 81 /braceright 82 /radical
83 /spade 84 /heart 85 /diamond 86 /club 87 /lessequal
88 /multiply 89 /percent 90 /infinity 48 /circlemultiply 49 /circleplus
50 /emptyset 51 /lozenge 52 /bullet 53 /arrowright 54 /arrowup
55 /arrowleft 56 /arrowdown 57 /arrowboth 48 /degree 44 /comma 43 /plus
 45 /angle 42 /angleleft 47 /divide 61 /notequal 40 /equivalence 41 /second
 97 /approxequal 98 /congruent 99 /perpendicular 100 /partialdiff 101 /florin
 102 /intersection 103 /union 104 /propersuperset 105 /reflexsuperset
 106 /notsubset 107 /propersubset 108 /reflexsubset 109 /element 110 /notelement
 111 /gradient 112 /logicaland 113 /logicalor 114 /arrowdblboth
 115 /arrowdblleft 116 /arrowdblup 117 /arrowdblright 118 /arrowdbldown
 119 /ampersand 120 /omega1 121 /similar 122 /aleph ] def
/Symbol /Special accspe ReEncode
%%EndProlog
%%BeginSetup
newpath  gsave  .25 .25 scale 
%%EndSetup
 gsave 0 0 t black [] 0 sd 1 lw 1418 1956 340 227 bl 2041 2268 0 0 C
 /xs 0 def 
(5 on 50 \(s=1000 GeV2\))
 /Times-Roman     77 stwn 
 gsave  1021 2047
 t   0 r  xs 2 div neg 0 t 0 0 m
 /Times-Roman findfont   77 sf 0    0 m 
(5 on 50 \(s=1000 GeV2\))
 show 
 gr  1418 1956 340 227 C NC 340 227 m 1956 Y s 374 227 m -34 X s
 /xs 0 def 
(1)
 /Times-Roman     77 stwn 
 gsave  261 201
 t   0 r  xs neg 0 t 0 0 m
 /Times-Roman findfont   77 sf 0    0 m 
(1)
 show 
 gr  357 423 m -17 X s 357 538 m -17 X s 357 619 m -17 X s 357 683 m -17 X s 357
 734 m -17 X s 357 778 m -17 X s 357 816 m -17 X s 357 849 m -17 X s 374 879 m
 -34 X s
 /xs 0 def 
(10)
 /Times-Roman     77 stwn 
 gsave  261 853
 t   0 r  xs neg 0 t 0 0 m
 /Times-Roman findfont   77 sf 0    0 m 
(10)
 show 
 gr  357 1075 m -17 X s 357 1190 m -17 X s 357 1271 m -17 X s 357 1335 m -17 X s
 357 1386 m -17 X s 357 1430 m -17 X s 357 1468 m -17 X s 357 1501 m -17 X s 374
 1531 m -34 X s
 /xs 0 def 
(10)
 /Times-Roman     77 stwn 
 gsave  261 1505
 t   0 r  xs neg 0 t 0 0 m
 /Times-Roman findfont   77 sf 0    0 m 
(10)
 show 
 gr 
 /xs 0 def 
(2)
 /Times-Roman     62 stwn 
 gsave  312 1542
 t   0 r  xs neg 0 t 0 0 m
 /Times-Roman findfont   62 sf 0    0 m 
(2)
 show 
 gr  357 1727 m -17 X s 357 1842 m -17 X s 357 1923 m -17 X s 357 1987 m -17 X s
 357 2038 m -17 X s 357 2082 m -17 X s 357 2120 m -17 X s 357 2153 m -17 X s 374
 2183 m -34 X s
 /xs 0 def 
(10)
 /Times-Roman     77 stwn 
 gsave  261 2157
 t   0 r  xs neg 0 t 0 0 m
 /Times-Roman findfont   77 sf 0    0 m 
(10)
 show 
 gr 
 /xs 0 def 
(3)
 /Times-Roman     62 stwn 
 gsave  312 2194
 t   0 r  xs neg 0 t 0 0 m
 /Times-Roman findfont   62 sf 0    0 m 
(3)
 show 
 gr  340 227 m 1418 X s 340 261 m -34 Y s
 /xs 0 def 
(10)
 /Times-Roman     77 stwn 
 gsave  315 120
 t   0 r  xs 2 div neg 0 t 0 0 m
 /Times-Roman findfont   77 sf 0    0 m 
(10)
 show 
 gr 
 /xs 0 def 
(-3)
 /Times-Roman     62 stwn 
 gsave  398 171
 t   0 r  xs 2 div neg 0 t 0 0 m
 /Times-Roman findfont   62 sf 0    0 m 
(-3)
 show 
 gr  482 244 m -17 Y s 566 244 m -17 Y s 625 244 m -17 Y s 670 244 m -17 Y s 708
 244 m -17 Y s 740 244 m -17 Y s 767 244 m -17 Y s 791 244 m -17 Y s 813 261 m
 -34 Y s
 /xs 0 def 
(10)
 /Times-Roman     77 stwn 
 gsave  787 120
 t   0 r  xs 2 div neg 0 t 0 0 m
 /Times-Roman findfont   77 sf 0    0 m 
(10)
 show 
 gr 
 /xs 0 def 
(-2)
 /Times-Roman     62 stwn 
 gsave  870 171
 t   0 r  xs 2 div neg 0 t 0 0 m
 /Times-Roman findfont   62 sf 0    0 m 
(-2)
 show 
 gr  955 244 m -17 Y s 1038 244 m -17 Y s 1097 244 m -17 Y s 1143 244 m -17 Y s
 1180 244 m -17 Y s 1212 244 m -17 Y s 1239 244 m -17 Y s 1264 244 m -17 Y s
 1285 261 m -34 Y s
 /xs 0 def 
(10)
 /Times-Roman     77 stwn 
 gsave  1260 120
 t   0 r  xs 2 div neg 0 t 0 0 m
 /Times-Roman findfont   77 sf 0    0 m 
(10)
 show 
 gr 
 /xs 0 def 
(-1)
 /Times-Roman     62 stwn 
 gsave  1343 171
 t   0 r  xs 2 div neg 0 t 0 0 m
 /Times-Roman findfont   62 sf 0    0 m 
(-1)
 show 
 gr  1427 244 m -17 Y s 1511 244 m -17 Y s 1570 244 m -17 Y s 1615 244 m -17 Y s
 1653 244 m -17 Y s 1685 244 m -17 Y s 1712 244 m -17 Y s 1736 244 m -17 Y s
 1418 1956 340 227 C NC 1758 227 m 1956 Y s 1724 227 m 34 X s 1741 423 m 17 X s
 1741 538 m 17 X s 1741 619 m 17 X s 1741 683 m 17 X s 1741 734 m 17 X s 1741
 778 m 17 X s 1741 816 m 17 X s 1741 849 m 17 X s 1724 879 m 34 X s 1741 1075 m
 17 X s 1741 1190 m 17 X s 1741 1271 m 17 X s 1741 1335 m 17 X s 1741 1386 m 17
 X s 1741 1430 m 17 X s 1741 1468 m 17 X s 1741 1501 m 17 X s 1724 1531 m 34 X s
 1741 1727 m 17 X s 1741 1842 m 17 X s 1741 1923 m 17 X s 1741 1987 m 17 X s
 1741 2038 m 17 X s 1741 2082 m 17 X s 1741 2120 m 17 X s 1741 2153 m 17 X s
 1724 2183 m 34 X s 340 2183 m 1418 X s 340 2149 m 34 Y s 482 2166 m 17 Y s 566
 2166 m 17 Y s 625 2166 m 17 Y s 670 2166 m 17 Y s 708 2166 m 17 Y s 740 2166 m
 17 Y s 767 2166 m 17 Y s 791 2166 m 17 Y s 813 2149 m 34 Y s 955 2166 m 17 Y s
 1038 2166 m 17 Y s 1097 2166 m 17 Y s 1143 2166 m 17 Y s 1180 2166 m 17 Y s
 1212 2166 m 17 Y s 1239 2166 m 17 Y s 1264 2166 m 17 Y s 1285 2149 m 34 Y s
 1427 2166 m 17 Y s 1511 2166 m 17 Y s 1570 2166 m 17 Y s 1615 2166 m 17 Y s
 1653 2166 m 17 Y s 1685 2166 m 17 Y s 1712 2166 m 17 Y s 1736 2166 m 17 Y s
 1418 1956 340 227 C 0 0 1 c << /PatternType 1 /PaintType 2 /TilingType 1
 /BBox [ 0 0 100 100 ] /XStep 100 /YStep 100 /PaintProc { begin gsave
 0 0 m 100 100 l 0 100 m 100 0 l s gr end } >> [ 0.24 0 0 0.24 0 0 ]
 makepattern /P13 exch def /cs {[/Pattern /DeviceRGB] setcolorspace} def
 /FA {f [/DeviceRGB] setcolorspace} def cs 0 0 1 P13 setcolor 482 179 m 24 48 d
 263 344 d 89 137 d 107 171 d 170 275 d 107 170 d 24 38 d 147 217 d 135 194 d 58
 88 d 88 142 d 42 59 d 34 42 d 34 36 d 29 25 d 37 28 d 35 20 d 31 14 d 29 7 d 26
 3 d 24 -3 d 22 -7 d 20 -11 d 21 -18 d 19 -23 d 19 -30 d 16 -37 d 14 -45 d 13
 -53 d 11 -71 d 7 -78 d 3 -85 d -2 -91 d -5 -99 d -9 -107 d -15 -114 d -19 -119
 d -23 -122 d -28 -122 d -31 -118 d -36 -116 d -32 -96 d -39 -101 d -40 -92 d
 -44 -91 d -39 -68 d -41 -65 d -19 -28 d -45 -58 d -52 -58 d -57 -57 d -64 -55 d
 -70 -54 d -82 -55 d -84 -48 d -83 -41 d -83 -36 d -80 -28 d -78 -22 d -75 -16 d
 -69 -10 d -65 -4 d -58 1 d -52 6 d -46 10 d -40 14 d -35 17 d -29 20 d -24 22 d
 -20 24 d -16 27 d -12 29 d -8 32 d -5 36 d 33 Y 3 41 d 8 46 d 13 50 d 20 56 d
 12 30 d FA black 482 179 m 24 48 d 263 344 d 89 137 d 107 171 d 170 275 d 107
 170 d 24 38 d 147 217 d 135 194 d 58 88 d 88 142 d 42 59 d 34 42 d 34 36 d 29
 25 d 37 28 d 35 20 d 31 14 d 29 7 d 26 3 d 24 -3 d 22 -7 d 20 -11 d 21 -18 d 19
 -23 d 19 -30 d 16 -37 d 14 -45 d 13 -53 d 11 -71 d 7 -78 d 3 -85 d -2 -91 d -5
 -99 d -9 -107 d -15 -114 d -19 -119 d -23 -122 d -28 -122 d -31 -118 d -36 -116
 d -32 -96 d -39 -101 d -40 -92 d -44 -91 d -39 -68 d -41 -65 d -19 -28 d -45
 -58 d -52 -58 d -57 -57 d -64 -55 d -70 -54 d -82 -55 d -84 -48 d -83 -41 d -83
 -36 d -80 -28 d -78 -22 d -75 -16 d -69 -10 d -65 -4 d -58 1 d -52 6 d -46 10 d
 -40 14 d -35 17 d -29 20 d -24 22 d -20 24 d -16 27 d -12 29 d -8 32 d -5 36 d
 33 Y 3 41 d 8 46 d 13 50 d 20 56 d 12 30 d cl s 2041 2268 0 0 C
 /xs 0 def 
(xpi)
 /Times-Roman     77 stwn 
 gsave  1049 51
 t   0 r  xs 2 div neg 0 t 0 0 m
 /Times-Roman findfont   77 sf 0    0 m 
(xpi)
 show 
 gr 
 /xs 0 def 
(Q)
 /Times-Roman     77 stwn 
(2)
 /Times-Roman     54 stwn 
 gsave  79 1205
 t  90 r  xs 2 div neg 0 t 0 0 m
 /Times-Roman findfont   77 sf 0    0 m 
(Q)
 show 
 currentpoint pop 0 t 
 /Times-Roman findfont   54 sf 0   39 m 
(2)
 show 
 gr  1418 1956 340 227 C
 gr  gr 
showpage
end
%%EOF
