%!PS-Adobe-2.0 EPSF-2.0
%%BoundingBox: 0 0 510 567
%%Title: x_vs_counts_linx.eps
%%Creator: HIGZ Version 1.29/04
%%CreationDate: 2016/09/06   12.11
%%EndComments
%%BeginProlog
80 dict begin
/s {stroke} def /l {lineto} def /m {moveto} def /t {translate} def
/sw {stringwidth} def /r {rotate} def /rl {roll}  def /R {repeat} def
/d {rlineto} def /rm {rmoveto} def /gr {grestore} def /f {eofill} def
/c {setrgbcolor} def /lw {setlinewidth} def /sd {setdash} def
/cl {closepath} def /sf {scalefont setfont} def /black {0 setgray} def
/box {m dup 0 exch d exch 0 d 0 exch neg d cl} def
/NC{systemdict begin initclip end}def/C{NC box clip newpath}def
/bl {box s} def /bf {box f} def /Y { 0 exch d} def /X { 0 d} def 
/mp {newpath /y exch def /x exch def} def
/side {[w .77 mul w .23 mul] .385 w mul sd w 0 l currentpoint t -144 r} def
/mr {mp x y w2 0 360 arc} def /m24 {mr s} def /m20 {mr f} def
/mb {mp x y w2 add m w2 neg 0 d 0 w neg d w 0 d 0 w d cl} def
/mt {mp x y w2 add m w2 neg w neg d w 0 d cl} def
/m21 {mb f} def /m25 {mb s} def /m22 {mt f} def /m26  {mt s} def
/m23 {mp x y w2 sub m w2 w d w neg 0 d cl f} def
/m27 {mp x y w2 add m w3 neg w2 neg d w3 w2 neg d w3  w2 d cl s} def
/m28 {mp x w2 sub y w2 sub w3 add m w3 0 d 0 w3 neg d w3 0 d 0 w3 d w3 0 d
 0 w3 d w3 neg 0 d 0 w3 d w3 neg 0 d
 0 w3 neg d w3 neg 0 d cl s } def
/m29 {mp gsave x w2 sub y w2 add w3 sub m currentpoint t
 4 {side} repeat cl fill gr} def
/m30 {mp gsave x w2 sub y w2 add w3 sub m currentpoint t
 5 {side} repeat s gr} def
/m31 {mp x y w2 sub m 0 w d x w2 sub y m w 0 d
 x w2 sub y w2 add m w w neg d x w2 sub y w2
 sub m w w d s} def
/m2 {mp x y w2 sub m 0 w d x w2 sub y m w 0 d s} def
/m5 {mp x w2 sub y w2 sub m w w d x w2 sub y w2 add m w w neg d s} def
/reencdict 24 dict def /ReEncode {reencdict begin /nco&na exch def
/nfnam exch def /basefontname exch def /basefontdict basefontname findfont def
/newfont basefontdict maxlength dict def basefontdict {exch dup /FID ne
{dup /Encoding eq {exch dup length array copy newfont 3 1 roll put} {exch
newfont 3 1 roll put} ifelse} {pop pop} ifelse } forall newfont
/FontName nfnam put nco&na aload pop nco&na length 2 idiv {newfont
/Encoding get 3 1 roll put} repeat nfnam newfont definefont pop end } def
/accvec [ 176 /agrave 181 /Agrave 190 /acircumflex 192 /Acircumflex
201 /adieresis 204 /Adieresis 209 /ccedilla 210 /Ccedilla 211 /eacute
212 /Eacute 213 /egrave 214 /Egrave 215 /ecircumflex 216 /Ecircumflex
217 /edieresis 218 /Edieresis 219 /icircumflex 220 /Icircumflex
221 /idieresis 222 /Idieresis 223 /ntilde 224 /Ntilde 226 /ocircumflex
228 /Ocircumflex 229 /odieresis 230 /Odieresis 231 /ucircumflex 236 /Ucircumflex
237 /udieresis 238 /Udieresis 239 /aring 242 /Aring 243 /ydieresis
244 /Ydieresis 246 /aacute 247 /Aacute 252 /ugrave 253 /Ugrave] def
/Times-Roman /Times-Roman accvec ReEncode
/Times-Italic /Times-Italic accvec ReEncode
/Times-Bold /Times-Bold accvec ReEncode
/Times-BoldItalic /Times-BoldItalic accvec ReEncode
/Helvetica /Helvetica accvec ReEncode
/Helvetica-Oblique /Helvetica-Oblique accvec ReEncode
/Helvetica-Bold /Helvetica-Bold accvec ReEncode
/Helvetica-BoldOblique /Helvetica-BoldOblique  accvec ReEncode
/Courier /Courier accvec ReEncode
/Courier-Oblique /Courier-Oblique accvec ReEncode
/Courier-Bold /Courier-Bold accvec ReEncode
/Courier-BoldOblique /Courier-BoldOblique accvec ReEncode
/oshow {gsave [] 0 sd true charpath stroke gr} def
/stwn { /fs exch def /fn exch def /text exch def fn findfont fs sf
 text sw pop xs add /xs exch def} def
/stwb { /fs exch def /fn exch def /nbas exch def /textf exch def
textf length /tlen exch def nbas tlen gt {/nbas tlen  def} if
fn findfont fs sf textf dup length nbas sub nbas getinterval sw
pop neg xs add /xs exch def} def
/accspe [ 65 /plusminus 66 /bar 67 /existential 68 /universal
69 /exclam 70 /numbersign 71 /greater 72 /question 73 /integral
74 /colon 75 /semicolon 76 /less 77 /bracketleft 78 /bracketright
79 /greaterequal 80 /braceleft 81 /braceright 82 /radical
83 /spade 84 /heart 85 /diamond 86 /club 87 /lessequal
88 /multiply 89 /percent 90 /infinity 48 /circlemultiply 49 /circleplus
50 /emptyset 51 /lozenge 52 /bullet 53 /arrowright 54 /arrowup
55 /arrowleft 56 /arrowdown 57 /arrowboth 48 /degree 44 /comma 43 /plus
 45 /angle 42 /angleleft 47 /divide 61 /notequal 40 /equivalence 41 /second
 97 /approxequal 98 /congruent 99 /perpendicular 100 /partialdiff 101 /florin
 102 /intersection 103 /union 104 /propersuperset 105 /reflexsuperset
 106 /notsubset 107 /propersubset 108 /reflexsubset 109 /element 110 /notelement
 111 /gradient 112 /logicaland 113 /logicalor 114 /arrowdblboth
 115 /arrowdblleft 116 /arrowdblup 117 /arrowdblright 118 /arrowdbldown
 119 /ampersand 120 /omega1 121 /similar 122 /aleph ] def
/Symbol /Special accspe ReEncode
%%EndProlog
%%BeginSetup
newpath  gsave  .25 .25 scale 
%%EndSetup
 gsave 0 0 t black [] 0 sd 1 lw 596 879 340 1304 bl 2041 2268 0 0 C
 /xs 0 def 
(5 on 50 \(s=1000 GeV2\))
 /Times-Roman     77 stwn 
 gsave  1021 2047
 t   0 r  xs 2 div neg 0 t 0 0 m
 /Times-Roman findfont   77 sf 0    0 m 
(5 on 50 \(s=1000 GeV2\))
 show 
 gr  596 879 340 1304 C 3 lw 0 0 1 c 340 1304 m 721 Y 6 X 114 Y 6 X -4 Y 6 X -12
 Y 6 X -11 Y 6 X -9 Y 6 X -9 Y 6 X -9 Y 6 X -7 Y 6 X -7 Y 6 X -6 Y 6 X -6 Y 6 X
 -6 Y 6 X -5 Y 6 X -5 Y 6 X -5 Y 5 X -7 Y 6 X -6 Y 6 X -7 Y 6 X -7 Y 6 X -7 Y 6
 X -8 Y 6 X -7 Y 6 X -7 Y 6 X -7 Y 6 X -7 Y 6 X -8 Y 6 X -7 Y 6 X -6 Y 6 X -7 Y
 6 X -7 Y 6 X -6 Y 6 X -6 Y 6 X -7 Y 6 X -6 Y 6 X -7 Y 6 X -5 Y 5 X -5 Y 6 X -6
 Y 6 X -4 Y 6 X -7 Y 6 X -6 Y 6 X -5 Y 6 X -7 Y 6 X -3 Y 6 X -7 Y 6 X -3 Y 6 X
 -4 Y 6 X -5 Y 6 X -5 Y 6 X -4 Y 6 X -3 Y 6 X -8 Y 6 X -2 Y 6 X -3 Y 6 X -5 Y 6
 X -5 Y 6 X -4 Y 6 X -1 Y 5 X -10 Y 6 X -1 Y 6 X -4 Y 6 X -8 Y 6 X -2 Y 12 X -10
 Y 12 X -8 Y 6 X -2 Y 6 X -7 Y 6 X -6 Y 6 X -4 Y 12 X -6 Y 6 X -7 Y 6 X -4 Y 6 X
 -5 Y 6 X -2 Y 6 X -13 Y 6 X 3 Y 5 X -7 Y 6 X -6 Y 6 X -5 Y 6 X -10 Y 6 X 4 Y 6
 X -9 Y 6 X -10 Y 6 X -5 Y 6 X -2 Y 6 X -11 Y 6 X -10 Y 6 X -18 Y 6 X -4 Y 6 X
 -23 Y 6 X -11 Y 6 X -24 Y 6 X -37 Y 6 X -162 Y 6 X -44 Y 12 X s NC 1 lw black
 340 1304 m 879 Y s 374 1304 m -34 X s
 /xs 0 def 
(1)
 /Times-Roman     77 stwn 
 gsave  261 1279
 t   0 r  xs neg 0 t 0 0 m
 /Times-Roman findfont   77 sf 0    0 m 
(1)
 show 
 gr  357 1348 m -17 X s 357 1373 m -17 X s 357 1392 m -17 X s 357 1406 m -17 X s
 357 1417 m -17 X s 357 1427 m -17 X s 357 1435 m -17 X s 357 1443 m -17 X s 374
 1450 m -34 X s
 /xs 0 def 
(10)
 /Times-Roman     77 stwn 
 gsave  261 1424
 t   0 r  xs neg 0 t 0 0 m
 /Times-Roman findfont   77 sf 0    0 m 
(10)
 show 
 gr  357 1493 m -17 X s 357 1519 m -17 X s 357 1537 m -17 X s 357 1551 m -17 X s
 357 1563 m -17 X s 357 1572 m -17 X s 357 1581 m -17 X s 357 1588 m -17 X s 374
 1595 m -34 X s
 /xs 0 def 
(10)
 /Times-Roman     77 stwn 
 gsave  261 1569
 t   0 r  xs neg 0 t 0 0 m
 /Times-Roman findfont   77 sf 0    0 m 
(10)
 show 
 gr 
 /xs 0 def 
(2)
 /Times-Roman     62 stwn 
 gsave  312 1606
 t   0 r  xs neg 0 t 0 0 m
 /Times-Roman findfont   62 sf 0    0 m 
(2)
 show 
 gr  357 1639 m -17 X s 357 1664 m -17 X s 357 1683 m -17 X s 357 1697 m -17 X s
 357 1708 m -17 X s 357 1718 m -17 X s 357 1726 m -17 X s 357 1734 m -17 X s 374
 1740 m -34 X s
 /xs 0 def 
(10)
 /Times-Roman     77 stwn 
 gsave  261 1715
 t   0 r  xs neg 0 t 0 0 m
 /Times-Roman findfont   77 sf 0    0 m 
(10)
 show 
 gr 
 /xs 0 def 
(3)
 /Times-Roman     62 stwn 
 gsave  312 1752
 t   0 r  xs neg 0 t 0 0 m
 /Times-Roman findfont   62 sf 0    0 m 
(3)
 show 
 gr  357 1784 m -17 X s 357 1810 m -17 X s 357 1828 m -17 X s 357 1842 m -17 X s
 357 1854 m -17 X s 357 1863 m -17 X s 357 1872 m -17 X s 357 1879 m -17 X s 374
 1886 m -34 X s
 /xs 0 def 
(10)
 /Times-Roman     77 stwn 
 gsave  261 1860
 t   0 r  xs neg 0 t 0 0 m
 /Times-Roman findfont   77 sf 0    0 m 
(10)
 show 
 gr 
 /xs 0 def 
(4)
 /Times-Roman     62 stwn 
 gsave  312 1897
 t   0 r  xs neg 0 t 0 0 m
 /Times-Roman findfont   62 sf 0    0 m 
(4)
 show 
 gr  357 1930 m -17 X s 357 1955 m -17 X s 357 1973 m -17 X s 357 1988 m -17 X s
 357 1999 m -17 X s 357 2009 m -17 X s 357 2017 m -17 X s 357 2025 m -17 X s 374
 2031 m -34 X s
 /xs 0 def 
(10)
 /Times-Roman     77 stwn 
 gsave  261 2006
 t   0 r  xs neg 0 t 0 0 m
 /Times-Roman findfont   77 sf 0    0 m 
(10)
 show 
 gr 
 /xs 0 def 
(5)
 /Times-Roman     62 stwn 
 gsave  312 2043
 t   0 r  xs neg 0 t 0 0 m
 /Times-Roman findfont   62 sf 0    0 m 
(5)
 show 
 gr  357 2075 m -17 X s 357 2101 m -17 X s 357 2119 m -17 X s 357 2133 m -17 X s
 357 2145 m -17 X s 357 2154 m -17 X s 357 2163 m -17 X s 357 2170 m -17 X s 374
 2177 m -34 X s
 /xs 0 def 
(10)
 /Times-Roman     77 stwn 
 gsave  261 2151
 t   0 r  xs neg 0 t 0 0 m
 /Times-Roman findfont   77 sf 0    0 m 
(10)
 show 
 gr 
 /xs 0 def 
(6)
 /Times-Roman     62 stwn 
 gsave  312 2188
 t   0 r  xs neg 0 t 0 0 m
 /Times-Roman findfont   62 sf 0    0 m 
(6)
 show 
 gr  340 1304 m 596 X s 340 1338 m -34 Y s 415 1321 m -17 Y s 489 1338 m -34 Y s
 563 1321 m -17 Y s 638 1338 m -34 Y s 712 1321 m -17 Y s 787 1338 m -34 Y s 861
 1321 m -17 Y s 936 1338 m -34 Y s 936 1338 m -34 Y s
 /xs 0 def 
(0)
 /Times-Roman     77 stwn 
 gsave  340 1230
 t   0 r  xs 2 div neg 0 t 0 0 m
 /Times-Roman findfont   77 sf 0    0 m 
(0)
 show 
 gr 
 /xs 0 def 
(0.25)
 /Times-Roman     77 stwn 
 gsave  489 1230
 t   0 r  xs 2 div neg 0 t 0 0 m
 /Times-Roman findfont   77 sf 0    0 m 
(0.25)
 show 
 gr 
 /xs 0 def 
(0.5)
 /Times-Roman     77 stwn 
 gsave  638 1230
 t   0 r  xs 2 div neg 0 t 0 0 m
 /Times-Roman findfont   77 sf 0    0 m 
(0.5)
 show 
 gr 
 /xs 0 def 
(0.75)
 /Times-Roman     77 stwn 
 gsave  787 1230
 t   0 r  xs 2 div neg 0 t 0 0 m
 /Times-Roman findfont   77 sf 0    0 m 
(0.75)
 show 
 gr 
 /xs 0 def 
(1)
 /Times-Roman     77 stwn 
 gsave  936 1230
 t   0 r  xs 2 div neg 0 t 0 0 m
 /Times-Roman findfont   77 sf 0    0 m 
(1)
 show 
 gr  596 879 340 1304 C NC 936 1304 m 879 Y s 902 1304 m 34 X s 919 1348 m 17 X
 s 919 1373 m 17 X s 919 1392 m 17 X s 919 1406 m 17 X s 919 1417 m 17 X s 919
 1427 m 17 X s 919 1435 m 17 X s 919 1443 m 17 X s 902 1450 m 34 X s 919 1493 m
 17 X s 919 1519 m 17 X s 919 1537 m 17 X s 919 1551 m 17 X s 919 1563 m 17 X s
 919 1572 m 17 X s 919 1581 m 17 X s 919 1588 m 17 X s 902 1595 m 34 X s 919
 1639 m 17 X s 919 1664 m 17 X s 919 1683 m 17 X s 919 1697 m 17 X s 919 1708 m
 17 X s 919 1718 m 17 X s 919 1726 m 17 X s 919 1734 m 17 X s 902 1740 m 34 X s
 919 1784 m 17 X s 919 1810 m 17 X s 919 1828 m 17 X s 919 1842 m 17 X s 919
 1854 m 17 X s 919 1863 m 17 X s 919 1872 m 17 X s 919 1879 m 17 X s 902 1886 m
 34 X s 919 1930 m 17 X s 919 1955 m 17 X s 919 1973 m 17 X s 919 1988 m 17 X s
 919 1999 m 17 X s 919 2009 m 17 X s 919 2017 m 17 X s 919 2025 m 17 X s 902
 2031 m 34 X s 919 2075 m 17 X s 919 2101 m 17 X s 919 2119 m 17 X s 919 2133 m
 17 X s 919 2145 m 17 X s 919 2154 m 17 X s 919 2163 m 17 X s 919 2170 m 17 X s
 902 2177 m 34 X s 340 2183 m 596 X s 340 2149 m 34 Y s 415 2166 m 17 Y s 489
 2149 m 34 Y s 563 2166 m 17 Y s 638 2149 m 34 Y s 712 2166 m 17 Y s 787 2149 m
 34 Y s 861 2166 m 17 Y s 936 2149 m 34 Y s 936 2149 m 34 Y s 596 879 340 1304 C
 2041 2268 0 0 C 596 879 340 1304 C 2041 2268 0 0 C 592 2132 m -3 -1 d -3 -3 d
 -2 -3 d -1 -5 d -7 Y 1 -5 d 2 -3 d 3 -3 d 3 -1 d 6 X 3 1 d 3 3 d 2 3 d 1 5 d 7
 Y -1 5 d -2 3 d -3 3 d -3 1 d -6 X cl s 596 2107 m 10 -9 d s 618 2125 m 1 Y 1 3
 d 2 2 d 3 1 d 6 X 3 -1 d 1 -2 d 2 -3 d -3 Y -2 -3 d -3 -4 d -15 -15 d 21 X s
 648 2119 m 27 X s 648 2110 m 27 X s 689 2132 m 16 X -9 -12 d 5 X 3 -1 d 1 -2 d
 2 -4 d -3 Y -2 -5 d -3 -3 d -4 -1 d -5 X -4 1 d -2 2 d -1 3 d s 719 2104 m -2
 -2 d 2 -1 d 1 1 d -1 2 d cl s 752 2132 m -15 -31 d s 731 2132 m 21 X s 779 2132
 m -15 X -1 -13 d 1 1 d 5 2 d 4 X 5 -2 d 3 -3 d 1 -4 d -3 Y -1 -5 d -3 -3 d -5
 -1 d -4 X -5 1 d -1 2 d -2 3 d s 596 879 340 1304 C 2041 2268 0 0 C
 /xs 0 def 
(x)
 /Times-Roman     77 stwn 
(p)
 /Symbol     54 stwn 
 gsave  638 1162
 t   0 r  xs 2 div neg 0 t 0 0 m
 /Times-Roman findfont   77 sf 0    0 m 
(x)
 show 
 currentpoint pop 0 t 
 /Symbol findfont   54 sf 0  -26 m 
(p)
 show 
 gr 
 /xs 0 def 
(Counts)
 /Times-Roman     77 stwn 
 gsave  79 1744
 t  90 r  xs 2 div neg 0 t 0 0 m
 /Times-Roman findfont   77 sf 0    0 m 
(Counts)
 show 
 gr  596 879 340 1304 C NC 596 879 1162 1304 bl 2041 2268 0 0 C 596 879 1162
 1304 C 3 lw 0 0 1 c 1162 1304 m 6 X 477 Y 6 X 267 Y 6 X 64 Y 6 X 18 Y 6 X 4 Y 6
 X -2 Y 6 X -4 Y 6 X -4 Y 6 X -5 Y 6 X -5 Y 6 X -5 Y 6 X -5 Y 6 X -5 Y 6 X -5 Y
 6 X -4 Y 6 X -5 Y 6 X -5 Y 6 X -3 Y 5 X -5 Y 6 X -4 Y 6 X -3 Y 6 X -5 Y 6 X -2
 Y 6 X -5 Y 6 X -3 Y 6 X -4 Y 6 X -3 Y 6 X -3 Y 6 X -3 Y 6 X -4 Y 6 X -3 Y 6 X
 -2 Y 6 X -3 Y 6 X -3 Y 6 X -2 Y 6 X -3 Y 6 X -3 Y 6 X -3 Y 6 X -2 Y 5 X -3 Y 6
 X -3 Y 6 X -2 Y 6 X -2 Y 6 X -3 Y 6 X -2 Y 6 X -3 Y 6 X -3 Y 6 X -3 Y 6 X -3 Y
 6 X -3 Y 6 X -2 Y 6 X -3 Y 6 X -3 Y 6 X -2 Y 6 X -3 Y 6 X -2 Y 6 X -3 Y 6 X -3
 Y 6 X -3 Y 6 X -4 Y 6 X -3 Y 5 X -1 Y 6 X -4 Y 6 X -4 Y 6 X -1 Y 6 X -4 Y 6 X
 -4 Y 6 X -4 Y 6 X -2 Y 6 X -3 Y 6 X -4 Y 6 X -5 Y 6 X -2 Y 6 X -6 Y 6 X -2 Y 6
 X -4 Y 6 X -5 Y 6 X -3 Y 6 X -4 Y 6 X -5 Y 6 X -4 Y 6 X -4 Y 5 X -7 Y 6 X -4 Y
 6 X -5 Y 6 X -5 Y 6 X -7 Y 6 X -8 Y 6 X -7 Y 6 X -7 Y 6 X -9 Y 6 X -9 Y 6 X -14
 Y 6 X -10 Y 6 X -17 Y 6 X -26 Y 6 X -44 Y 6 X -85 Y 6 X -256 Y 6 X -49 Y s NC 1
 lw black 1162 1304 m 879 Y s 1179 1333 m -17 X s 1179 1353 m -17 X s 1179 1369
 m -17 X s 1179 1382 m -17 X s 1179 1393 m -17 X s 1179 1403 m -17 X s 1179 1411
 m -17 X s 1196 1418 m -34 X s
 /xs 0 def 
(10)
 /Times-Roman     77 stwn 
 gsave  1083 1393
 t   0 r  xs neg 0 t 0 0 m
 /Times-Roman findfont   77 sf 0    0 m 
(10)
 show 
 gr  1179 1468 m -17 X s 1179 1497 m -17 X s 1179 1517 m -17 X s 1179 1533 m -17
 X s 1179 1546 m -17 X s 1179 1557 m -17 X s 1179 1566 m -17 X s 1179 1575 m -17
 X s 1196 1582 m -34 X s
 /xs 0 def 
(10)
 /Times-Roman     77 stwn 
 gsave  1083 1557
 t   0 r  xs neg 0 t 0 0 m
 /Times-Roman findfont   77 sf 0    0 m 
(10)
 show 
 gr 
 /xs 0 def 
(2)
 /Times-Roman     62 stwn 
 gsave  1134 1594
 t   0 r  xs neg 0 t 0 0 m
 /Times-Roman findfont   62 sf 0    0 m 
(2)
 show 
 gr  1179 1631 m -17 X s 1179 1660 m -17 X s 1179 1681 m -17 X s 1179 1696 m -17
 X s 1179 1709 m -17 X s 1179 1720 m -17 X s 1179 1730 m -17 X s 1179 1738 m -17
 X s 1196 1746 m -34 X s
 /xs 0 def 
(10)
 /Times-Roman     77 stwn 
 gsave  1083 1720
 t   0 r  xs neg 0 t 0 0 m
 /Times-Roman findfont   77 sf 0    0 m 
(10)
 show 
 gr 
 /xs 0 def 
(3)
 /Times-Roman     62 stwn 
 gsave  1134 1757
 t   0 r  xs neg 0 t 0 0 m
 /Times-Roman findfont   62 sf 0    0 m 
(3)
 show 
 gr  1179 1795 m -17 X s 1179 1824 m -17 X s 1179 1844 m -17 X s 1179 1860 m -17
 X s 1179 1873 m -17 X s 1179 1884 m -17 X s 1179 1894 m -17 X s 1179 1902 m -17
 X s 1196 1909 m -34 X s
 /xs 0 def 
(10)
 /Times-Roman     77 stwn 
 gsave  1083 1884
 t   0 r  xs neg 0 t 0 0 m
 /Times-Roman findfont   77 sf 0    0 m 
(10)
 show 
 gr 
 /xs 0 def 
(4)
 /Times-Roman     62 stwn 
 gsave  1134 1921
 t   0 r  xs neg 0 t 0 0 m
 /Times-Roman findfont   62 sf 0    0 m 
(4)
 show 
 gr  1179 1959 m -17 X s 1179 1987 m -17 X s 1179 2008 m -17 X s 1179 2024 m -17
 X s 1179 2037 m -17 X s 1179 2048 m -17 X s 1179 2057 m -17 X s 1179 2066 m -17
 X s 1196 2073 m -34 X s
 /xs 0 def 
(10)
 /Times-Roman     77 stwn 
 gsave  1083 2048
 t   0 r  xs neg 0 t 0 0 m
 /Times-Roman findfont   77 sf 0    0 m 
(10)
 show 
 gr 
 /xs 0 def 
(5)
 /Times-Roman     62 stwn 
 gsave  1134 2085
 t   0 r  xs neg 0 t 0 0 m
 /Times-Roman findfont   62 sf 0    0 m 
(5)
 show 
 gr  1179 2122 m -17 X s 1179 2151 m -17 X s 1179 2172 m -17 X s 1162 1304 m 596
 X s 1162 1338 m -34 Y s 1237 1321 m -17 Y s 1311 1338 m -34 Y s 1386 1321 m -17
 Y s 1460 1338 m -34 Y s 1534 1321 m -17 Y s 1609 1338 m -34 Y s 1683 1321 m -17
 Y s 1758 1338 m -34 Y s
 /xs 0 def 
(0)
 /Times-Roman     77 stwn 
 gsave  1162 1230
 t   0 r  xs 2 div neg 0 t 0 0 m
 /Times-Roman findfont   77 sf 0    0 m 
(0)
 show 
 gr 
 /xs 0 def 
(0.25)
 /Times-Roman     77 stwn 
 gsave  1311 1230
 t   0 r  xs 2 div neg 0 t 0 0 m
 /Times-Roman findfont   77 sf 0    0 m 
(0.25)
 show 
 gr 
 /xs 0 def 
(0.5)
 /Times-Roman     77 stwn 
 gsave  1460 1230
 t   0 r  xs 2 div neg 0 t 0 0 m
 /Times-Roman findfont   77 sf 0    0 m 
(0.5)
 show 
 gr 
 /xs 0 def 
(0.75)
 /Times-Roman     77 stwn 
 gsave  1609 1230
 t   0 r  xs 2 div neg 0 t 0 0 m
 /Times-Roman findfont   77 sf 0    0 m 
(0.75)
 show 
 gr 
 /xs 0 def 
(1)
 /Times-Roman     77 stwn 
 gsave  1758 1230
 t   0 r  xs 2 div neg 0 t 0 0 m
 /Times-Roman findfont   77 sf 0    0 m 
(1)
 show 
 gr  596 879 1162 1304 C NC 1758 1304 m 879 Y s 1741 1333 m 17 X s 1741 1353 m
 17 X s 1741 1369 m 17 X s 1741 1382 m 17 X s 1741 1393 m 17 X s 1741 1403 m 17
 X s 1741 1411 m 17 X s 1724 1418 m 34 X s 1741 1468 m 17 X s 1741 1497 m 17 X s
 1741 1517 m 17 X s 1741 1533 m 17 X s 1741 1546 m 17 X s 1741 1557 m 17 X s
 1741 1566 m 17 X s 1741 1575 m 17 X s 1724 1582 m 34 X s 1741 1631 m 17 X s
 1741 1660 m 17 X s 1741 1681 m 17 X s 1741 1696 m 17 X s 1741 1709 m 17 X s
 1741 1720 m 17 X s 1741 1730 m 17 X s 1741 1738 m 17 X s 1724 1746 m 34 X s
 1741 1795 m 17 X s 1741 1824 m 17 X s 1741 1844 m 17 X s 1741 1860 m 17 X s
 1741 1873 m 17 X s 1741 1884 m 17 X s 1741 1894 m 17 X s 1741 1902 m 17 X s
 1724 1909 m 34 X s 1741 1959 m 17 X s 1741 1987 m 17 X s 1741 2008 m 17 X s
 1741 2024 m 17 X s 1741 2037 m 17 X s 1741 2048 m 17 X s 1741 2057 m 17 X s
 1741 2066 m 17 X s 1724 2073 m 34 X s 1741 2122 m 17 X s 1741 2151 m 17 X s
 1741 2172 m 17 X s 1162 2183 m 596 X s 1162 2149 m 34 Y s 1237 2166 m 17 Y s
 1311 2149 m 34 Y s 1386 2166 m 17 Y s 1460 2149 m 34 Y s 1534 2166 m 17 Y s
 1609 2149 m 34 Y s 1683 2166 m 17 Y s 1758 2149 m 34 Y s 596 879 1162 1304 C
 2041 2268 0 0 C 596 879 1162 1304 C 2041 2268 0 0 C 1414 2105 m -3 -2 d -3 -3 d
 -1 -3 d -2 -4 d -8 Y 2 -4 d 1 -3 d 3 -3 d 3 -2 d 6 X 3 2 d 3 3 d 2 3 d 1 4 d 8
 Y -1 4 d -2 3 d -3 3 d -3 2 d -6 X cl s 1419 2079 m 9 -9 d s 1440 2097 m 2 Y 1
 3 d 2 1 d 3 2 d 6 X 3 -2 d 1 -1 d 2 -3 d -3 Y -2 -3 d -3 -5 d -15 -15 d 21 X s
 1470 2091 m 27 X s 1470 2082 m 27 X s 1512 2099 m 3 1 d 5 5 d -32 Y s 1556 2105
 m -15 X -1 -14 d 1 2 d 5 1 d 4 X 5 -1 d 3 -3 d 1 -5 d -3 Y -1 -4 d -3 -3 d -5
 -2 d -4 X -5 2 d -1 1 d -2 3 d s 596 879 1162 1304 C 2041 2268 0 0 C
 /xs 0 def 
(x)
 /Times-Roman     77 stwn 
(p)
 /Symbol     54 stwn 
 gsave  1460 1162
 t   0 r  xs 2 div neg 0 t 0 0 m
 /Times-Roman findfont   77 sf 0    0 m 
(x)
 show 
 currentpoint pop 0 t 
 /Symbol findfont   54 sf 0  -26 m 
(p)
 show 
 gr  596 879 1162 1304 C NC 596 879 340 198 bl 2041 2268 0 0 C 596 879 340 198 C
 3 lw 0 0 1 c 340 198 m 48 X 61 Y 6 X 417 Y 6 X 165 Y 6 X 75 Y 6 X 38 Y 6 X 23 Y
 6 X 15 Y 6 X 9 Y 5 X 8 Y 6 X 3 Y 6 X 3 Y 6 X 2 Y 18 X -1 Y 12 X -2 Y 6 X -1 Y 6
 X -2 Y 6 X -2 Y 6 X -2 Y 6 X -3 Y 6 X -2 Y 6 X -2 Y 6 X -2 Y 6 X -3 Y 6 X -3 Y
 6 X -2 Y 6 X -3 Y 5 X -2 Y 6 X -3 Y 6 X -2 Y 6 X -2 Y 6 X -3 Y 6 X -3 Y 6 X -2
 Y 6 X -3 Y 6 X -2 Y 6 X -3 Y 6 X -3 Y 6 X -2 Y 6 X -3 Y 6 X -2 Y 6 X -3 Y 6 X
 -2 Y 6 X -4 Y 6 X -2 Y 6 X -4 Y 6 X -2 Y 6 X -3 Y 6 X -3 Y 5 X -3 Y 6 X -3 Y 6
 X -3 Y 6 X -3 Y 6 X -3 Y 6 X -3 Y 6 X -2 Y 6 X -4 Y 6 X -3 Y 6 X -3 Y 6 X -3 Y
 6 X -4 Y 6 X -3 Y 6 X -4 Y 6 X -4 Y 6 X -3 Y 6 X -4 Y 6 X -4 Y 6 X -5 Y 6 X -4
 Y 6 X -3 Y 5 X -5 Y 6 X -6 Y 6 X -5 Y 6 X -6 Y 6 X -5 Y 6 X -6 Y 6 X -6 Y 6 X
 -8 Y 6 X -7 Y 6 X -9 Y 6 X -10 Y 6 X -11 Y 6 X -11 Y 6 X -14 Y 6 X -17 Y 6 X
 -17 Y 6 X -22 Y 6 X -36 Y 6 X -63 Y 6 X -187 Y 6 X -209 Y s NC 1 lw black 340
 198 m 879 Y s 357 259 m -17 X s 357 294 m -17 X s 357 319 m -17 X s 357 338 m
 -17 X s 357 354 m -17 X s 357 367 m -17 X s 357 379 m -17 X s 357 389 m -17 X s
 374 398 m -34 X s
 /xs 0 def 
(10)
 /Times-Roman     77 stwn 
 gsave  261 373
 t   0 r  xs neg 0 t 0 0 m
 /Times-Roman findfont   77 sf 0    0 m 
(10)
 show 
 gr 
 /xs 0 def 
(2)
 /Times-Roman     62 stwn 
 gsave  312 410
 t   0 r  xs neg 0 t 0 0 m
 /Times-Roman findfont   62 sf 0    0 m 
(2)
 show 
 gr  357 459 m -17 X s 357 494 m -17 X s 357 519 m -17 X s 357 538 m -17 X s 357
 554 m -17 X s 357 567 m -17 X s 357 579 m -17 X s 357 589 m -17 X s 374 598 m
 -34 X s
 /xs 0 def 
(10)
 /Times-Roman     77 stwn 
 gsave  261 573
 t   0 r  xs neg 0 t 0 0 m
 /Times-Roman findfont   77 sf 0    0 m 
(10)
 show 
 gr 
 /xs 0 def 
(3)
 /Times-Roman     62 stwn 
 gsave  312 610
 t   0 r  xs neg 0 t 0 0 m
 /Times-Roman findfont   62 sf 0    0 m 
(3)
 show 
 gr  357 658 m -17 X s 357 694 m -17 X s 357 719 m -17 X s 357 738 m -17 X s 357
 754 m -17 X s 357 767 m -17 X s 357 779 m -17 X s 357 789 m -17 X s 374 798 m
 -34 X s
 /xs 0 def 
(10)
 /Times-Roman     77 stwn 
 gsave  261 773
 t   0 r  xs neg 0 t 0 0 m
 /Times-Roman findfont   77 sf 0    0 m 
(10)
 show 
 gr 
 /xs 0 def 
(4)
 /Times-Roman     62 stwn 
 gsave  312 810
 t   0 r  xs neg 0 t 0 0 m
 /Times-Roman findfont   62 sf 0    0 m 
(4)
 show 
 gr  357 858 m -17 X s 357 894 m -17 X s 357 919 m -17 X s 357 938 m -17 X s 357
 954 m -17 X s 357 967 m -17 X s 357 979 m -17 X s 357 989 m -17 X s 374 998 m
 -34 X s
 /xs 0 def 
(10)
 /Times-Roman     77 stwn 
 gsave  261 973
 t   0 r  xs neg 0 t 0 0 m
 /Times-Roman findfont   77 sf 0    0 m 
(10)
 show 
 gr 
 /xs 0 def 
(5)
 /Times-Roman     62 stwn 
 gsave  312 1010
 t   0 r  xs neg 0 t 0 0 m
 /Times-Roman findfont   62 sf 0    0 m 
(5)
 show 
 gr  357 1058 m -17 X s 340 198 m 596 X s 340 232 m -34 Y s 415 215 m -17 Y s
 489 232 m -34 Y s 563 215 m -17 Y s 638 232 m -34 Y s 712 215 m -17 Y s 787 232
 m -34 Y s 861 215 m -17 Y s 936 232 m -34 Y s 936 232 m -34 Y s
 /xs 0 def 
(0)
 /Times-Roman     77 stwn 
 gsave  340 125
 t   0 r  xs 2 div neg 0 t 0 0 m
 /Times-Roman findfont   77 sf 0    0 m 
(0)
 show 
 gr 
 /xs 0 def 
(0.25)
 /Times-Roman     77 stwn 
 gsave  489 125
 t   0 r  xs 2 div neg 0 t 0 0 m
 /Times-Roman findfont   77 sf 0    0 m 
(0.25)
 show 
 gr 
 /xs 0 def 
(0.5)
 /Times-Roman     77 stwn 
 gsave  638 125
 t   0 r  xs 2 div neg 0 t 0 0 m
 /Times-Roman findfont   77 sf 0    0 m 
(0.5)
 show 
 gr 
 /xs 0 def 
(0.75)
 /Times-Roman     77 stwn 
 gsave  787 125
 t   0 r  xs 2 div neg 0 t 0 0 m
 /Times-Roman findfont   77 sf 0    0 m 
(0.75)
 show 
 gr 
 /xs 0 def 
(1)
 /Times-Roman     77 stwn 
 gsave  936 125
 t   0 r  xs 2 div neg 0 t 0 0 m
 /Times-Roman findfont   77 sf 0    0 m 
(1)
 show 
 gr  596 879 340 198 C NC 936 198 m 879 Y s 919 259 m 17 X s 919 294 m 17 X s
 919 319 m 17 X s 919 338 m 17 X s 919 354 m 17 X s 919 367 m 17 X s 919 379 m
 17 X s 919 389 m 17 X s 902 398 m 34 X s 919 459 m 17 X s 919 494 m 17 X s 919
 519 m 17 X s 919 538 m 17 X s 919 554 m 17 X s 919 567 m 17 X s 919 579 m 17 X
 s 919 589 m 17 X s 902 598 m 34 X s 919 658 m 17 X s 919 694 m 17 X s 919 719 m
 17 X s 919 738 m 17 X s 919 754 m 17 X s 919 767 m 17 X s 919 779 m 17 X s 919
 789 m 17 X s 902 798 m 34 X s 919 858 m 17 X s 919 894 m 17 X s 919 919 m 17 X
 s 919 938 m 17 X s 919 954 m 17 X s 919 967 m 17 X s 919 979 m 17 X s 919 989 m
 17 X s 902 998 m 34 X s 919 1058 m 17 X s 340 1077 m 596 X s 340 1043 m 34 Y s
 415 1060 m 17 Y s 489 1043 m 34 Y s 563 1060 m 17 Y s 638 1043 m 34 Y s 712
 1060 m 17 Y s 787 1043 m 34 Y s 861 1060 m 17 Y s 936 1043 m 34 Y s 936 1043 m
 34 Y s 596 879 340 198 C 2041 2268 0 0 C 596 879 340 198 C 2041 2268 0 0 C 651
 1030 m -3 -2 d -3 -3 d -1 -3 d -2 -4 d -8 Y 2 -4 d 1 -3 d 3 -3 d 3 -2 d 7 X 3 2
 d 3 3 d 1 3 d 2 4 d 8 Y -2 4 d -1 3 d -3 3 d -3 2 d -7 X cl s 656 1004 m 9 -9 d
 s 677 1022 m 2 Y 2 3 d 1 1 d 3 2 d 6 X 3 -2 d 2 -1 d 1 -3 d -3 Y -1 -3 d -3 -5
 d -15 -15 d 21 X s 707 1016 m 28 X s 707 1007 m 28 X s 765 1025 m -2 3 d -4 2 d
 -3 X -5 -2 d -3 -4 d -1 -8 d -7 Y 1 -6 d 3 -3 d 5 -2 d 1 X 5 2 d 3 3 d 1 4 d 2
 Y -1 4 d -3 3 d -5 2 d -1 X -5 -2 d -3 -3 d -1 -4 d s 785 1030 m -5 -2 d -3 -4
 d -2 -8 d -4 Y 2 -8 d 3 -4 d 5 -2 d 3 X 4 2 d 3 4 d 2 8 d 4 Y -2 8 d -3 4 d -4
 2 d -3 X cl s 596 879 340 198 C 2041 2268 0 0 C
 /xs 0 def 
(x)
 /Times-Roman     77 stwn 
(p)
 /Symbol     54 stwn 
 gsave  638 57
 t   0 r  xs 2 div neg 0 t 0 0 m
 /Times-Roman findfont   77 sf 0    0 m 
(x)
 show 
 currentpoint pop 0 t 
 /Symbol findfont   54 sf 0  -26 m 
(p)
 show 
 gr 
 /xs 0 def 
(Counts)
 /Times-Roman     77 stwn 
 gsave  79 638
 t  90 r  xs 2 div neg 0 t 0 0 m
 /Times-Roman findfont   77 sf 0    0 m 
(Counts)
 show 
 gr  596 879 340 198 C NC 596 879 1162 198 bl 2041 2268 0 0 C 596 879 1162 198 C
 3 lw 0 0 1 c 1162 245 m -47 Y 215 X 47 Y 6 X 334 Y 6 X 134 Y 6 X 109 Y 5 X 53 Y
 6 X 32 Y 6 X 23 Y 6 X 17 Y 6 X 14 Y 6 X 12 Y 6 X 9 Y 6 X 8 Y 6 X 7 Y 6 X 6 Y 6
 X 6 Y 6 X 3 Y 6 X 4 Y 6 X 3 Y 6 X 3 Y 6 X 3 Y 6 X 1 Y 6 X 1 Y 6 X 1 Y 6 X 2 Y
 12 X 1 Y 29 X -1 Y 6 X -1 Y 12 X -1 Y 6 X -2 Y 6 X -1 Y 6 X -1 Y 6 X -2 Y 6 X
 -2 Y 6 X -2 Y 6 X -2 Y 6 X -2 Y 6 X -3 Y 6 X -3 Y 6 X -3 Y 6 X -3 Y 6 X -4 Y 5
 X -3 Y 6 X -4 Y 6 X -5 Y 6 X -4 Y 6 X -5 Y 6 X -6 Y 6 X -6 Y 6 X -8 Y 6 X -8 Y
 6 X -9 Y 6 X -11 Y 6 X -13 Y 6 X -17 Y 6 X -20 Y 6 X -28 Y 6 X -44 Y 6 X -107 Y
 6 X -455 Y s NC 1 lw black 1162 198 m 879 Y s 1179 198 m -17 X s 1179 211 m -17
 X s 1179 221 m -17 X s 1179 230 m -17 X s 1179 238 m -17 X s 1196 245 m -34 X s
 /xs 0 def 
(1)
 /Times-Roman     77 stwn 
 gsave  1083 219
 t   0 r  xs neg 0 t 0 0 m
 /Times-Roman findfont   77 sf 0    0 m 
(1)
 show 
 gr  1179 291 m -17 X s 1179 318 m -17 X s 1179 337 m -17 X s 1179 352 m -17 X s
 1179 364 m -17 X s 1179 374 m -17 X s 1179 383 m -17 X s 1179 391 m -17 X s
 1196 398 m -34 X s
 /xs 0 def 
(10)
 /Times-Roman     77 stwn 
 gsave  1083 373
 t   0 r  xs neg 0 t 0 0 m
 /Times-Roman findfont   77 sf 0    0 m 
(10)
 show 
 gr  1179 444 m -17 X s 1179 471 m -17 X s 1179 491 m -17 X s 1179 506 m -17 X s
 1179 518 m -17 X s 1179 528 m -17 X s 1179 537 m -17 X s 1179 545 m -17 X s
 1196 552 m -34 X s
 /xs 0 def 
(10)
 /Times-Roman     77 stwn 
 gsave  1083 526
 t   0 r  xs neg 0 t 0 0 m
 /Times-Roman findfont   77 sf 0    0 m 
(10)
 show 
 gr 
 /xs 0 def 
(2)
 /Times-Roman     62 stwn 
 gsave  1134 563
 t   0 r  xs neg 0 t 0 0 m
 /Times-Roman findfont   62 sf 0    0 m 
(2)
 show 
 gr  1179 598 m -17 X s 1179 625 m -17 X s 1179 644 m -17 X s 1179 659 m -17 X s
 1179 671 m -17 X s 1179 681 m -17 X s 1179 690 m -17 X s 1179 698 m -17 X s
 1196 705 m -34 X s
 /xs 0 def 
(10)
 /Times-Roman     77 stwn 
 gsave  1083 680
 t   0 r  xs neg 0 t 0 0 m
 /Times-Roman findfont   77 sf 0    0 m 
(10)
 show 
 gr 
 /xs 0 def 
(3)
 /Times-Roman     62 stwn 
 gsave  1134 717
 t   0 r  xs neg 0 t 0 0 m
 /Times-Roman findfont   62 sf 0    0 m 
(3)
 show 
 gr  1179 751 m -17 X s 1179 779 m -17 X s 1179 798 m -17 X s 1179 813 m -17 X s
 1179 825 m -17 X s 1179 835 m -17 X s 1179 844 m -17 X s 1179 852 m -17 X s
 1196 859 m -34 X s
 /xs 0 def 
(10)
 /Times-Roman     77 stwn 
 gsave  1083 833
 t   0 r  xs neg 0 t 0 0 m
 /Times-Roman findfont   77 sf 0    0 m 
(10)
 show 
 gr 
 /xs 0 def 
(4)
 /Times-Roman     62 stwn 
 gsave  1134 870
 t   0 r  xs neg 0 t 0 0 m
 /Times-Roman findfont   62 sf 0    0 m 
(4)
 show 
 gr  1179 905 m -17 X s 1179 932 m -17 X s 1179 951 m -17 X s 1179 966 m -17 X s
 1179 978 m -17 X s 1179 989 m -17 X s 1179 997 m -17 X s 1179 1005 m -17 X s
 1196 1012 m -34 X s
 /xs 0 def 
(10)
 /Times-Roman     77 stwn 
 gsave  1083 987
 t   0 r  xs neg 0 t 0 0 m
 /Times-Roman findfont   77 sf 0    0 m 
(10)
 show 
 gr 
 /xs 0 def 
(5)
 /Times-Roman     62 stwn 
 gsave  1134 1024
 t   0 r  xs neg 0 t 0 0 m
 /Times-Roman findfont   62 sf 0    0 m 
(5)
 show 
 gr  1179 1059 m -17 X s 1162 198 m 596 X s 1162 232 m -34 Y s 1237 215 m -17 Y
 s 1311 232 m -34 Y s 1386 215 m -17 Y s 1460 232 m -34 Y s 1534 215 m -17 Y s
 1609 232 m -34 Y s 1683 215 m -17 Y s 1758 232 m -34 Y s
 /xs 0 def 
(0)
 /Times-Roman     77 stwn 
 gsave  1162 125
 t   0 r  xs 2 div neg 0 t 0 0 m
 /Times-Roman findfont   77 sf 0    0 m 
(0)
 show 
 gr 
 /xs 0 def 
(0.25)
 /Times-Roman     77 stwn 
 gsave  1311 125
 t   0 r  xs 2 div neg 0 t 0 0 m
 /Times-Roman findfont   77 sf 0    0 m 
(0.25)
 show 
 gr 
 /xs 0 def 
(0.5)
 /Times-Roman     77 stwn 
 gsave  1460 125
 t   0 r  xs 2 div neg 0 t 0 0 m
 /Times-Roman findfont   77 sf 0    0 m 
(0.5)
 show 
 gr 
 /xs 0 def 
(0.75)
 /Times-Roman     77 stwn 
 gsave  1609 125
 t   0 r  xs 2 div neg 0 t 0 0 m
 /Times-Roman findfont   77 sf 0    0 m 
(0.75)
 show 
 gr 
 /xs 0 def 
(1)
 /Times-Roman     77 stwn 
 gsave  1758 125
 t   0 r  xs 2 div neg 0 t 0 0 m
 /Times-Roman findfont   77 sf 0    0 m 
(1)
 show 
 gr  596 879 1162 198 C NC 1758 198 m 879 Y s 1741 198 m 17 X s 1741 211 m 17 X
 s 1741 221 m 17 X s 1741 230 m 17 X s 1741 238 m 17 X s 1724 245 m 34 X s 1741
 291 m 17 X s 1741 318 m 17 X s 1741 337 m 17 X s 1741 352 m 17 X s 1741 364 m
 17 X s 1741 374 m 17 X s 1741 383 m 17 X s 1741 391 m 17 X s 1724 398 m 34 X s
 1741 444 m 17 X s 1741 471 m 17 X s 1741 491 m 17 X s 1741 506 m 17 X s 1741
 518 m 17 X s 1741 528 m 17 X s 1741 537 m 17 X s 1741 545 m 17 X s 1724 552 m
 34 X s 1741 598 m 17 X s 1741 625 m 17 X s 1741 644 m 17 X s 1741 659 m 17 X s
 1741 671 m 17 X s 1741 681 m 17 X s 1741 690 m 17 X s 1741 698 m 17 X s 1724
 705 m 34 X s 1741 751 m 17 X s 1741 779 m 17 X s 1741 798 m 17 X s 1741 813 m
 17 X s 1741 825 m 17 X s 1741 835 m 17 X s 1741 844 m 17 X s 1741 852 m 17 X s
 1724 859 m 34 X s 1741 905 m 17 X s 1741 932 m 17 X s 1741 951 m 17 X s 1741
 966 m 17 X s 1741 978 m 17 X s 1741 989 m 17 X s 1741 997 m 17 X s 1741 1005 m
 17 X s 1724 1012 m 34 X s 1741 1059 m 17 X s 1162 1077 m 596 X s 1162 1043 m 34
 Y s 1237 1060 m 17 Y s 1311 1043 m 34 Y s 1386 1060 m 17 Y s 1460 1043 m 34 Y s
 1534 1060 m 17 Y s 1609 1043 m 34 Y s 1683 1060 m 17 Y s 1758 1043 m 34 Y s 596
 879 1162 198 C 2041 2268 0 0 C 596 879 1162 198 C 2041 2268 0 0 C 1235 1020 m
 -3 -1 d -3 -3 d -1 -3 d -2 -5 d -7 Y 2 -5 d 1 -3 d 3 -3 d 3 -1 d 7 X 3 1 d 3 3
 d 1 3 d 2 5 d 7 Y -2 5 d -1 3 d -3 3 d -3 1 d -7 X cl s 1240 995 m 9 -9 d s
 1261 1013 m 1 Y 2 3 d 1 2 d 3 1 d 6 X 3 -1 d 2 -2 d 1 -3 d -3 Y -1 -3 d -3 -4 d
 -15 -15 d 21 X s 1291 1007 m 28 X s 1291 998 m 28 X s 1331 1013 m 1 Y 1 3 d 2 2
 d 3 1 d 6 X 3 -1 d 1 -2 d 2 -3 d -3 Y -2 -3 d -3 -4 d -15 -15 d 21 X s 1375
 1020 m -16 -21 d 23 X s 1375 1020 m -31 Y s 1399 1020 m -5 -1 d -3 -5 d -1 -7 d
 -5 Y 1 -7 d 3 -5 d 5 -1 d 3 X 4 1 d 3 5 d 2 7 d 5 Y -2 7 d -3 5 d -4 1 d -3 X
 cl s 596 879 1162 198 C 2041 2268 0 0 C
 /xs 0 def 
(x)
 /Times-Roman     77 stwn 
(p)
 /Symbol     54 stwn 
 gsave  1460 57
 t   0 r  xs 2 div neg 0 t 0 0 m
 /Times-Roman findfont   77 sf 0    0 m 
(x)
 show 
 currentpoint pop 0 t 
 /Symbol findfont   54 sf 0  -26 m 
(p)
 show 
 gr  596 879 1162 198 C
 gr  gr 
showpage
end
%%EOF
