%!PS-Adobe-2.0 EPSF-2.0
%%BoundingBox: 0 0 510 567
%%Title: x_vs_counts_stat.eps
%%Creator: HIGZ Version 1.29/04
%%CreationDate: 2018/09/25   16.01
%%EndComments
%%BeginProlog
80 dict begin
/s {stroke} def /l {lineto} def /m {moveto} def /t {translate} def
/sw {stringwidth} def /r {rotate} def /rl {roll}  def /R {repeat} def
/d {rlineto} def /rm {rmoveto} def /gr {grestore} def /f {eofill} def
/c {setrgbcolor} def /lw {setlinewidth} def /sd {setdash} def
/cl {closepath} def /sf {scalefont setfont} def /black {0 setgray} def
/box {m dup 0 exch d exch 0 d 0 exch neg d cl} def
/NC{systemdict begin initclip end}def/C{NC box clip newpath}def
/bl {box s} def /bf {box f} def /Y { 0 exch d} def /X { 0 d} def 
/mp {newpath /y exch def /x exch def} def
/side {[w .77 mul w .23 mul] .385 w mul sd w 0 l currentpoint t -144 r} def
/mr {mp x y w2 0 360 arc} def /m24 {mr s} def /m20 {mr f} def
/mb {mp x y w2 add m w2 neg 0 d 0 w neg d w 0 d 0 w d cl} def
/mt {mp x y w2 add m w2 neg w neg d w 0 d cl} def
/m21 {mb f} def /m25 {mb s} def /m22 {mt f} def /m26  {mt s} def
/m23 {mp x y w2 sub m w2 w d w neg 0 d cl f} def
/m27 {mp x y w2 add m w3 neg w2 neg d w3 w2 neg d w3  w2 d cl s} def
/m28 {mp x w2 sub y w2 sub w3 add m w3 0 d 0 w3 neg d w3 0 d 0 w3 d w3 0 d
 0 w3 d w3 neg 0 d 0 w3 d w3 neg 0 d
 0 w3 neg d w3 neg 0 d cl s } def
/m29 {mp gsave x w2 sub y w2 add w3 sub m currentpoint t
 4 {side} repeat cl fill gr} def
/m30 {mp gsave x w2 sub y w2 add w3 sub m currentpoint t
 5 {side} repeat s gr} def
/m31 {mp x y w2 sub m 0 w d x w2 sub y m w 0 d
 x w2 sub y w2 add m w w neg d x w2 sub y w2
 sub m w w d s} def
/m2 {mp x y w2 sub m 0 w d x w2 sub y m w 0 d s} def
/m5 {mp x w2 sub y w2 sub m w w d x w2 sub y w2 add m w w neg d s} def
/reencdict 24 dict def /ReEncode {reencdict begin /nco&na exch def
/nfnam exch def /basefontname exch def /basefontdict basefontname findfont def
/newfont basefontdict maxlength dict def basefontdict {exch dup /FID ne
{dup /Encoding eq {exch dup length array copy newfont 3 1 roll put} {exch
newfont 3 1 roll put} ifelse} {pop pop} ifelse } forall newfont
/FontName nfnam put nco&na aload pop nco&na length 2 idiv {newfont
/Encoding get 3 1 roll put} repeat nfnam newfont definefont pop end } def
/accvec [ 176 /agrave 181 /Agrave 190 /acircumflex 192 /Acircumflex
201 /adieresis 204 /Adieresis 209 /ccedilla 210 /Ccedilla 211 /eacute
212 /Eacute 213 /egrave 214 /Egrave 215 /ecircumflex 216 /Ecircumflex
217 /edieresis 218 /Edieresis 219 /icircumflex 220 /Icircumflex
221 /idieresis 222 /Idieresis 223 /ntilde 224 /Ntilde 226 /ocircumflex
228 /Ocircumflex 229 /odieresis 230 /Odieresis 231 /ucircumflex 236 /Ucircumflex
237 /udieresis 238 /Udieresis 239 /aring 242 /Aring 243 /ydieresis
244 /Ydieresis 246 /aacute 247 /Aacute 252 /ugrave 253 /Ugrave] def
/Times-Roman /Times-Roman accvec ReEncode
/Times-Italic /Times-Italic accvec ReEncode
/Times-Bold /Times-Bold accvec ReEncode
/Times-BoldItalic /Times-BoldItalic accvec ReEncode
/Helvetica /Helvetica accvec ReEncode
/Helvetica-Oblique /Helvetica-Oblique accvec ReEncode
/Helvetica-Bold /Helvetica-Bold accvec ReEncode
/Helvetica-BoldOblique /Helvetica-BoldOblique  accvec ReEncode
/Courier /Courier accvec ReEncode
/Courier-Oblique /Courier-Oblique accvec ReEncode
/Courier-Bold /Courier-Bold accvec ReEncode
/Courier-BoldOblique /Courier-BoldOblique accvec ReEncode
/oshow {gsave [] 0 sd true charpath stroke gr} def
/stwn { /fs exch def /fn exch def /text exch def fn findfont fs sf
 text sw pop xs add /xs exch def} def
/stwb { /fs exch def /fn exch def /nbas exch def /textf exch def
textf length /tlen exch def nbas tlen gt {/nbas tlen  def} if
fn findfont fs sf textf dup length nbas sub nbas getinterval sw
pop neg xs add /xs exch def} def
/accspe [ 65 /plusminus 66 /bar 67 /existential 68 /universal
69 /exclam 70 /numbersign 71 /greater 72 /question 73 /integral
74 /colon 75 /semicolon 76 /less 77 /bracketleft 78 /bracketright
79 /greaterequal 80 /braceleft 81 /braceright 82 /radical
83 /spade 84 /heart 85 /diamond 86 /club 87 /lessequal
88 /multiply 89 /percent 90 /infinity 48 /circlemultiply 49 /circleplus
50 /emptyset 51 /lozenge 52 /bullet 53 /arrowright 54 /arrowup
55 /arrowleft 56 /arrowdown 57 /arrowboth 48 /degree 44 /comma 43 /plus
 45 /angle 42 /angleleft 47 /divide 61 /notequal 40 /equivalence 41 /second
 97 /approxequal 98 /congruent 99 /perpendicular 100 /partialdiff 101 /florin
 102 /intersection 103 /union 104 /propersuperset 105 /reflexsuperset
 106 /notsubset 107 /propersubset 108 /reflexsubset 109 /element 110 /notelement
 111 /gradient 112 /logicaland 113 /logicalor 114 /arrowdblboth
 115 /arrowdblleft 116 /arrowdblup 117 /arrowdblright 118 /arrowdbldown
 119 /ampersand 120 /omega1 121 /similar 122 /aleph ] def
/Symbol /Special accspe ReEncode
%%EndProlog
%%BeginSetup
newpath  gsave  .25 .25 scale 
%%EndSetup
 gsave 0 0 t black [] 0 sd 1 lw 596 879 340 1304 bl 596 879 340 1304 C NC 340
 1304 m 879 Y s 374 1304 m -34 X s 357 1326 m -17 X s 357 1348 m -17 X s 357
 1370 m -17 X s 374 1392 m -34 X s 357 1414 m -17 X s 357 1436 m -17 X s 357
 1458 m -17 X s 374 1480 m -34 X s 357 1502 m -17 X s 357 1524 m -17 X s 357
 1546 m -17 X s 374 1568 m -34 X s 357 1590 m -17 X s 357 1612 m -17 X s 357
 1634 m -17 X s 374 1656 m -34 X s 357 1678 m -17 X s 357 1700 m -17 X s 357
 1722 m -17 X s 374 1744 m -34 X s 357 1765 m -17 X s 357 1787 m -17 X s 357
 1809 m -17 X s 374 1831 m -34 X s 357 1853 m -17 X s 357 1875 m -17 X s 357
 1897 m -17 X s 374 1919 m -34 X s 357 1941 m -17 X s 357 1963 m -17 X s 357
 1985 m -17 X s 374 2007 m -34 X s 357 2029 m -17 X s 357 2051 m -17 X s 357
 2073 m -17 X s 374 2095 m -34 X s 357 2117 m -17 X s 357 2139 m -17 X s 357
 2161 m -17 X s 374 2183 m -34 X s
 /xs 0 def 
(0)
 /Times-Roman     77 stwn 
 gsave  261 1279
 t   0 r  xs neg 0 t 0 0 m
 /Times-Roman findfont   77 sf 0    0 m 
(0)
 show 
 gr 
 /xs 0 def 
(0.2)
 /Times-Roman     77 stwn 
 gsave  261 1366
 t   0 r  xs neg 0 t 0 0 m
 /Times-Roman findfont   77 sf 0    0 m 
(0.2)
 show 
 gr 
 /xs 0 def 
(0.4)
 /Times-Roman     77 stwn 
 gsave  261 1454
 t   0 r  xs neg 0 t 0 0 m
 /Times-Roman findfont   77 sf 0    0 m 
(0.4)
 show 
 gr 
 /xs 0 def 
(0.6)
 /Times-Roman     77 stwn 
 gsave  261 1542
 t   0 r  xs neg 0 t 0 0 m
 /Times-Roman findfont   77 sf 0    0 m 
(0.6)
 show 
 gr 
 /xs 0 def 
(0.8)
 /Times-Roman     77 stwn 
 gsave  261 1630
 t   0 r  xs neg 0 t 0 0 m
 /Times-Roman findfont   77 sf 0    0 m 
(0.8)
 show 
 gr 
 /xs 0 def 
(1)
 /Times-Roman     77 stwn 
 gsave  261 1718
 t   0 r  xs neg 0 t 0 0 m
 /Times-Roman findfont   77 sf 0    0 m 
(1)
 show 
 gr 
 /xs 0 def 
(1.2)
 /Times-Roman     77 stwn 
 gsave  261 1806
 t   0 r  xs neg 0 t 0 0 m
 /Times-Roman findfont   77 sf 0    0 m 
(1.2)
 show 
 gr 
 /xs 0 def 
(1.4)
 /Times-Roman     77 stwn 
 gsave  261 1894
 t   0 r  xs neg 0 t 0 0 m
 /Times-Roman findfont   77 sf 0    0 m 
(1.4)
 show 
 gr 
 /xs 0 def 
(1.6)
 /Times-Roman     77 stwn 
 gsave  261 1982
 t   0 r  xs neg 0 t 0 0 m
 /Times-Roman findfont   77 sf 0    0 m 
(1.6)
 show 
 gr 
 /xs 0 def 
(1.8)
 /Times-Roman     77 stwn 
 gsave  261 2070
 t   0 r  xs neg 0 t 0 0 m
 /Times-Roman findfont   77 sf 0    0 m 
(1.8)
 show 
 gr 
 /xs 0 def 
(2)
 /Times-Roman     77 stwn 
 gsave  261 2157
 t   0 r  xs neg 0 t 0 0 m
 /Times-Roman findfont   77 sf 0    0 m 
(2)
 show 
 gr  340 1304 m 596 X s 340 1338 m -34 Y s 370 1321 m -17 Y s 399 1321 m -17 Y s
 429 1321 m -17 Y s 458 1321 m -17 Y s 488 1338 m -34 Y s 517 1321 m -17 Y s 547
 1321 m -17 Y s 576 1321 m -17 Y s 605 1321 m -17 Y s 635 1338 m -34 Y s 664
 1321 m -17 Y s 694 1321 m -17 Y s 723 1321 m -17 Y s 753 1321 m -17 Y s 782
 1338 m -34 Y s 812 1321 m -17 Y s 841 1321 m -17 Y s 871 1321 m -17 Y s 900
 1321 m -17 Y s 930 1338 m -34 Y s 930 1338 m -34 Y s
 /xs 0 def 
(0)
 /Times-Roman     77 stwn 
 gsave  340 1230
 t   0 r  xs 2 div neg 0 t 0 0 m
 /Times-Roman findfont   77 sf 0    0 m 
(0)
 show 
 gr 
 /xs 0 def 
(0.25)
 /Times-Roman     77 stwn 
 gsave  488 1230
 t   0 r  xs 2 div neg 0 t 0 0 m
 /Times-Roman findfont   77 sf 0    0 m 
(0.25)
 show 
 gr 
 /xs 0 def 
(0.5)
 /Times-Roman     77 stwn 
 gsave  635 1230
 t   0 r  xs 2 div neg 0 t 0 0 m
 /Times-Roman findfont   77 sf 0    0 m 
(0.5)
 show 
 gr 
 /xs 0 def 
(0.75)
 /Times-Roman     77 stwn 
 gsave  782 1230
 t   0 r  xs 2 div neg 0 t 0 0 m
 /Times-Roman findfont   77 sf 0    0 m 
(0.75)
 show 
 gr 
 /xs 0 def 
(1)
 /Times-Roman     77 stwn 
 gsave  930 1230
 t   0 r  xs 2 div neg 0 t 0 0 m
 /Times-Roman findfont   77 sf 0    0 m 
(1)
 show 
 gr  596 879 340 1304 C NC 936 1304 m 879 Y s 902 1304 m 34 X s 919 1326 m 17 X
 s 919 1348 m 17 X s 919 1370 m 17 X s 902 1392 m 34 X s 919 1414 m 17 X s 919
 1436 m 17 X s 919 1458 m 17 X s 902 1480 m 34 X s 919 1502 m 17 X s 919 1524 m
 17 X s 919 1546 m 17 X s 902 1568 m 34 X s 919 1590 m 17 X s 919 1612 m 17 X s
 919 1634 m 17 X s 902 1656 m 34 X s 919 1678 m 17 X s 919 1700 m 17 X s 919
 1722 m 17 X s 902 1744 m 34 X s 919 1765 m 17 X s 919 1787 m 17 X s 919 1809 m
 17 X s 902 1831 m 34 X s 919 1853 m 17 X s 919 1875 m 17 X s 919 1897 m 17 X s
 902 1919 m 34 X s 919 1941 m 17 X s 919 1963 m 17 X s 919 1985 m 17 X s 902
 2007 m 34 X s 919 2029 m 17 X s 919 2051 m 17 X s 919 2073 m 17 X s 902 2095 m
 34 X s 919 2117 m 17 X s 919 2139 m 17 X s 919 2161 m 17 X s 902 2183 m 34 X s
 340 2183 m 596 X s 340 2149 m 34 Y s 370 2166 m 17 Y s 399 2166 m 17 Y s 429
 2166 m 17 Y s 458 2166 m 17 Y s 488 2149 m 34 Y s 517 2166 m 17 Y s 547 2166 m
 17 Y s 576 2166 m 17 Y s 605 2166 m 17 Y s 635 2149 m 34 Y s 664 2166 m 17 Y s
 694 2166 m 17 Y s 723 2166 m 17 Y s 753 2166 m 17 Y s 782 2149 m 34 Y s 812
 2166 m 17 Y s 841 2166 m 17 Y s 871 2166 m 17 Y s 900 2166 m 17 Y s 930 2149 m
 34 Y s 930 2149 m 34 Y s 596 879 340 1304 C 3 lw /w 17
 def /w2 {w 2 div} def /w3 {w 3 div} def 370 1744 m21 429 1744 m21 488 1744 m21
 547 1735 m s 547 1752 m s 547 1744 m21 605 1730 m 5 Y s 605 1752 m 5 Y s 605
 1744 m21 664 1725 m 10 Y s 664 1752 m 10 Y s 664 1744 m21 723 1718 m 17 Y s 723
 1752 m 17 Y s 723 1744 m21 782 1707 m 28 Y s 782 1752 m 28 Y s 782 1744 m21 841
 1686 m 49 Y s 841 1752 m 49 Y s 841 1744 m21 900 1621 m 114 Y s 900 1752 m 114
 Y s 900 1744 m21 917 1304 m 431 Y s 917 1752 m 431 Y s 917 1744 m21 2041 2268 0
 0 C 596 879 340 1304 C 2041 2268 0 0 C 1 lw 590 131828848 m -8 X -1 -8 d 1 X 2
 -16 d 18 X 1 16 d 2 X -2 8 d -13 X cl s 594 131828824 m 9 X s 615 131828848 m
 18 X -1 -8 d -3 X -15 -16 d 21 X s 646 131828840 m 27 X s 646 131828840 m 27 X
 s 686 131828848 m 17 X -9 -8 d 11 X -2 -16 d -20 X s 717 131828824 m -2 X 3 X
 -1 X cl s 750 131828848 m -15 -24 d s 729 131828848 m 21 X s 777 131828848 m
 -15 X -2 -8 d 20 X -1 -16 d -20 X s 596 879 340 1304 C 2041 2268 0 0 C
 /xs 0 def 
(x)
 /Times-Roman     77 stwn 
(p)
 /Symbol     54 stwn 
 gsave  638 1162
 t   0 r  xs 2 div neg 0 t 0 0 m
 /Times-Roman findfont   77 sf 0    0 m 
(x)
 show 
 currentpoint pop 0 t 
 /Symbol findfont   54 sf 0  -26 m 
(p)
 show 
 gr  596 879 340 1304 C NC 596 879 1162 1304 bl 596 879 1162 1304 C NC 1162 1304
 m 879 Y s 1196 1304 m -34 X s 1179 1326 m -17 X s 1179 1348 m -17 X s 1179 1370
 m -17 X s 1196 1392 m -34 X s 1179 1414 m -17 X s 1179 1436 m -17 X s 1179 1458
 m -17 X s 1196 1480 m -34 X s 1179 1502 m -17 X s 1179 1524 m -17 X s 1179 1546
 m -17 X s 1196 1568 m -34 X s 1179 1590 m -17 X s 1179 1612 m -17 X s 1179 1634
 m -17 X s 1196 1656 m -34 X s 1179 1678 m -17 X s 1179 1700 m -17 X s 1179 1722
 m -17 X s 1196 1744 m -34 X s 1179 1765 m -17 X s 1179 1787 m -17 X s 1179 1809
 m -17 X s 1196 1831 m -34 X s 1179 1853 m -17 X s 1179 1875 m -17 X s 1179 1897
 m -17 X s 1196 1919 m -34 X s 1179 1941 m -17 X s 1179 1963 m -17 X s 1179 1985
 m -17 X s 1196 2007 m -34 X s 1179 2029 m -17 X s 1179 2051 m -17 X s 1179 2073
 m -17 X s 1196 2095 m -34 X s 1179 2117 m -17 X s 1179 2139 m -17 X s 1179 2161
 m -17 X s 1196 2183 m -34 X s
 /xs 0 def 
(0)
 /Times-Roman     77 stwn 
 gsave  1083 1279
 t   0 r  xs neg 0 t 0 0 m
 /Times-Roman findfont   77 sf 0    0 m 
(0)
 show 
 gr 
 /xs 0 def 
(0.2)
 /Times-Roman     77 stwn 
 gsave  1083 1366
 t   0 r  xs neg 0 t 0 0 m
 /Times-Roman findfont   77 sf 0    0 m 
(0.2)
 show 
 gr 
 /xs 0 def 
(0.4)
 /Times-Roman     77 stwn 
 gsave  1083 1454
 t   0 r  xs neg 0 t 0 0 m
 /Times-Roman findfont   77 sf 0    0 m 
(0.4)
 show 
 gr 
 /xs 0 def 
(0.6)
 /Times-Roman     77 stwn 
 gsave  1083 1542
 t   0 r  xs neg 0 t 0 0 m
 /Times-Roman findfont   77 sf 0    0 m 
(0.6)
 show 
 gr 
 /xs 0 def 
(0.8)
 /Times-Roman     77 stwn 
 gsave  1083 1630
 t   0 r  xs neg 0 t 0 0 m
 /Times-Roman findfont   77 sf 0    0 m 
(0.8)
 show 
 gr 
 /xs 0 def 
(1)
 /Times-Roman     77 stwn 
 gsave  1083 1718
 t   0 r  xs neg 0 t 0 0 m
 /Times-Roman findfont   77 sf 0    0 m 
(1)
 show 
 gr 
 /xs 0 def 
(1.2)
 /Times-Roman     77 stwn 
 gsave  1083 1806
 t   0 r  xs neg 0 t 0 0 m
 /Times-Roman findfont   77 sf 0    0 m 
(1.2)
 show 
 gr 
 /xs 0 def 
(1.4)
 /Times-Roman     77 stwn 
 gsave  1083 1894
 t   0 r  xs neg 0 t 0 0 m
 /Times-Roman findfont   77 sf 0    0 m 
(1.4)
 show 
 gr 
 /xs 0 def 
(1.6)
 /Times-Roman     77 stwn 
 gsave  1083 1982
 t   0 r  xs neg 0 t 0 0 m
 /Times-Roman findfont   77 sf 0    0 m 
(1.6)
 show 
 gr 
 /xs 0 def 
(1.8)
 /Times-Roman     77 stwn 
 gsave  1083 2070
 t   0 r  xs neg 0 t 0 0 m
 /Times-Roman findfont   77 sf 0    0 m 
(1.8)
 show 
 gr 
 /xs 0 def 
(2)
 /Times-Roman     77 stwn 
 gsave  1083 2157
 t   0 r  xs neg 0 t 0 0 m
 /Times-Roman findfont   77 sf 0    0 m 
(2)
 show 
 gr  1162 1304 m 596 X s 1162 1338 m -34 Y s 1192 1321 m -17 Y s 1221 1321 m -17
 Y s 1251 1321 m -17 Y s 1280 1321 m -17 Y s 1310 1338 m -34 Y s 1339 1321 m -17
 Y s 1369 1321 m -17 Y s 1398 1321 m -17 Y s 1428 1321 m -17 Y s 1457 1338 m -34
 Y s 1487 1321 m -17 Y s 1516 1321 m -17 Y s 1545 1321 m -17 Y s 1575 1321 m -17
 Y s 1604 1338 m -34 Y s 1634 1321 m -17 Y s 1663 1321 m -17 Y s 1693 1321 m -17
 Y s 1722 1321 m -17 Y s 1752 1338 m -34 Y s 1752 1338 m -34 Y s
 /xs 0 def 
(0)
 /Times-Roman     77 stwn 
 gsave  1162 1230
 t   0 r  xs 2 div neg 0 t 0 0 m
 /Times-Roman findfont   77 sf 0    0 m 
(0)
 show 
 gr 
 /xs 0 def 
(0.25)
 /Times-Roman     77 stwn 
 gsave  1310 1230
 t   0 r  xs 2 div neg 0 t 0 0 m
 /Times-Roman findfont   77 sf 0    0 m 
(0.25)
 show 
 gr 
 /xs 0 def 
(0.5)
 /Times-Roman     77 stwn 
 gsave  1457 1230
 t   0 r  xs 2 div neg 0 t 0 0 m
 /Times-Roman findfont   77 sf 0    0 m 
(0.5)
 show 
 gr 
 /xs 0 def 
(0.75)
 /Times-Roman     77 stwn 
 gsave  1604 1230
 t   0 r  xs 2 div neg 0 t 0 0 m
 /Times-Roman findfont   77 sf 0    0 m 
(0.75)
 show 
 gr 
 /xs 0 def 
(1)
 /Times-Roman     77 stwn 
 gsave  1752 1230
 t   0 r  xs 2 div neg 0 t 0 0 m
 /Times-Roman findfont   77 sf 0    0 m 
(1)
 show 
 gr  596 879 1162 1304 C NC 1758 1304 m 879 Y s 1724 1304 m 34 X s 1741 1326 m
 17 X s 1741 1348 m 17 X s 1741 1370 m 17 X s 1724 1392 m 34 X s 1741 1414 m 17
 X s 1741 1436 m 17 X s 1741 1458 m 17 X s 1724 1480 m 34 X s 1741 1502 m 17 X s
 1741 1524 m 17 X s 1741 1546 m 17 X s 1724 1568 m 34 X s 1741 1590 m 17 X s
 1741 1612 m 17 X s 1741 1634 m 17 X s 1724 1656 m 34 X s 1741 1678 m 17 X s
 1741 1700 m 17 X s 1741 1722 m 17 X s 1724 1744 m 34 X s 1741 1765 m 17 X s
 1741 1787 m 17 X s 1741 1809 m 17 X s 1724 1831 m 34 X s 1741 1853 m 17 X s
 1741 1875 m 17 X s 1741 1897 m 17 X s 1724 1919 m 34 X s 1741 1941 m 17 X s
 1741 1963 m 17 X s 1741 1985 m 17 X s 1724 2007 m 34 X s 1741 2029 m 17 X s
 1741 2051 m 17 X s 1741 2073 m 17 X s 1724 2095 m 34 X s 1741 2117 m 17 X s
 1741 2139 m 17 X s 1741 2161 m 17 X s 1724 2183 m 34 X s 1162 2183 m 596 X s
 1162 2149 m 34 Y s 1192 2166 m 17 Y s 1221 2166 m 17 Y s 1251 2166 m 17 Y s
 1280 2166 m 17 Y s 1310 2149 m 34 Y s 1339 2166 m 17 Y s 1369 2166 m 17 Y s
 1398 2166 m 17 Y s 1428 2166 m 17 Y s 1457 2149 m 34 Y s 1487 2166 m 17 Y s
 1516 2166 m 17 Y s 1545 2166 m 17 Y s 1575 2166 m 17 Y s 1604 2149 m 34 Y s
 1634 2166 m 17 Y s 1663 2166 m 17 Y s 1693 2166 m 17 Y s 1722 2166 m 17 Y s
 1752 2149 m 34 Y s 1752 2149 m 34 Y s 596 879 1162 1304 C 3 lw 1192 1744 m21
 1251 1744 m21 1310 1744 m21 1369 1744 m21 1428 1744 m21 1487 1744 m21 1545 1744
 m21 1604 1733 m 2 Y s 1604 1752 m 2 Y s 1604 1744 m21 1663 1729 m 6 Y s 1663
 1752 m 6 Y s 1663 1744 m21 1722 1718 m 17 Y s 1722 1752 m 17 Y s 1722 1744 m21
 1749 1304 m 431 Y s 1749 1752 m 431 Y s 1749 1744 m21 2041 2268 0 0 C 596 879
 1162 1304 C 2041 2268 0 0 C 1 lw 1412 43943844 m -3 X -3 -8 d -2 -4 d -1 -4 d
 -8 Y 1 -4 d 2 -4 d 3 -4 d 12 X 3 4 d 1 4 d 2 4 d 8 Y -2 4 d -1 4 d -3 8 d -9 X
 cl s 1416 43943816 m 9 -8 d s 1437 43943832 m 2 4 d 1 8 d 13 X 1 -8 d 2 -4 d -4
 Y -2 X -3 -4 d -15 -16 d 21 X s 1468 43943824 m 27 X s 1468 43943820 m 27 X s
 1510 43943832 m 3 4 d 5 8 d -36 Y s 1554 43943844 m -15 X -2 -20 d 2 4 d 13 X 3
 -4 d 2 -4 d -2 -8 d -3 -4 d -13 X -2 4 d -1 4 d s 596 879 1162 1304 C 2041 2268
 0 0 C
 /xs 0 def 
(x)
 /Times-Roman     77 stwn 
(p)
 /Symbol     54 stwn 
 gsave  1460 1162
 t   0 r  xs 2 div neg 0 t 0 0 m
 /Times-Roman findfont   77 sf 0    0 m 
(x)
 show 
 currentpoint pop 0 t 
 /Symbol findfont   54 sf 0  -26 m 
(p)
 show 
 gr  596 879 1162 1304 C NC 596 879 340 198 bl 596 879 340 198 C NC 340 198 m
 879 Y s 374 198 m -34 X s 357 220 m -17 X s 357 242 m -17 X s 357 264 m -17 X s
 374 286 m -34 X s 357 308 m -17 X s 357 330 m -17 X s 357 352 m -17 X s 374 374
 m -34 X s 357 396 m -17 X s 357 418 m -17 X s 357 440 m -17 X s 374 462 m -34 X
 s 357 484 m -17 X s 357 506 m -17 X s 357 528 m -17 X s 374 550 m -34 X s 357
 572 m -17 X s 357 594 m -17 X s 357 616 m -17 X s 374 638 m -34 X s 357 660 m
 -17 X s 357 682 m -17 X s 357 704 m -17 X s 374 726 m -34 X s 357 748 m -17 X s
 357 770 m -17 X s 357 792 m -17 X s 374 814 m -34 X s 357 836 m -17 X s 357 858
 m -17 X s 357 880 m -17 X s 374 902 m -34 X s 357 924 m -17 X s 357 945 m -17 X
 s 357 967 m -17 X s 374 989 m -34 X s 357 1011 m -17 X s 357 1033 m -17 X s 357
 1055 m -17 X s 374 1077 m -34 X s
 /xs 0 def 
(0)
 /Times-Roman     77 stwn 
 gsave  261 173
 t   0 r  xs neg 0 t 0 0 m
 /Times-Roman findfont   77 sf 0    0 m 
(0)
 show 
 gr 
 /xs 0 def 
(0.2)
 /Times-Roman     77 stwn 
 gsave  261 261
 t   0 r  xs neg 0 t 0 0 m
 /Times-Roman findfont   77 sf 0    0 m 
(0.2)
 show 
 gr 
 /xs 0 def 
(0.4)
 /Times-Roman     77 stwn 
 gsave  261 349
 t   0 r  xs neg 0 t 0 0 m
 /Times-Roman findfont   77 sf 0    0 m 
(0.4)
 show 
 gr 
 /xs 0 def 
(0.6)
 /Times-Roman     77 stwn 
 gsave  261 437
 t   0 r  xs neg 0 t 0 0 m
 /Times-Roman findfont   77 sf 0    0 m 
(0.6)
 show 
 gr 
 /xs 0 def 
(0.8)
 /Times-Roman     77 stwn 
 gsave  261 524
 t   0 r  xs neg 0 t 0 0 m
 /Times-Roman findfont   77 sf 0    0 m 
(0.8)
 show 
 gr 
 /xs 0 def 
(1)
 /Times-Roman     77 stwn 
 gsave  261 612
 t   0 r  xs neg 0 t 0 0 m
 /Times-Roman findfont   77 sf 0    0 m 
(1)
 show 
 gr 
 /xs 0 def 
(1.2)
 /Times-Roman     77 stwn 
 gsave  261 700
 t   0 r  xs neg 0 t 0 0 m
 /Times-Roman findfont   77 sf 0    0 m 
(1.2)
 show 
 gr 
 /xs 0 def 
(1.4)
 /Times-Roman     77 stwn 
 gsave  261 788
 t   0 r  xs neg 0 t 0 0 m
 /Times-Roman findfont   77 sf 0    0 m 
(1.4)
 show 
 gr 
 /xs 0 def 
(1.6)
 /Times-Roman     77 stwn 
 gsave  261 876
 t   0 r  xs neg 0 t 0 0 m
 /Times-Roman findfont   77 sf 0    0 m 
(1.6)
 show 
 gr 
 /xs 0 def 
(1.8)
 /Times-Roman     77 stwn 
 gsave  261 964
 t   0 r  xs neg 0 t 0 0 m
 /Times-Roman findfont   77 sf 0    0 m 
(1.8)
 show 
 gr 
 /xs 0 def 
(2)
 /Times-Roman     77 stwn 
 gsave  261 1052
 t   0 r  xs neg 0 t 0 0 m
 /Times-Roman findfont   77 sf 0    0 m 
(2)
 show 
 gr  340 198 m 596 X s 340 232 m -34 Y s 370 215 m -17 Y s 399 215 m -17 Y s 429
 215 m -17 Y s 458 215 m -17 Y s 488 232 m -34 Y s 517 215 m -17 Y s 547 215 m
 -17 Y s 576 215 m -17 Y s 605 215 m -17 Y s 635 232 m -34 Y s 664 215 m -17 Y s
 694 215 m -17 Y s 723 215 m -17 Y s 753 215 m -17 Y s 782 232 m -34 Y s 812 215
 m -17 Y s 841 215 m -17 Y s 871 215 m -17 Y s 900 215 m -17 Y s 930 232 m -34 Y
 s 930 232 m -34 Y s
 /xs 0 def 
(0)
 /Times-Roman     77 stwn 
 gsave  340 125
 t   0 r  xs 2 div neg 0 t 0 0 m
 /Times-Roman findfont   77 sf 0    0 m 
(0)
 show 
 gr 
 /xs 0 def 
(0.25)
 /Times-Roman     77 stwn 
 gsave  488 125
 t   0 r  xs 2 div neg 0 t 0 0 m
 /Times-Roman findfont   77 sf 0    0 m 
(0.25)
 show 
 gr 
 /xs 0 def 
(0.5)
 /Times-Roman     77 stwn 
 gsave  635 125
 t   0 r  xs 2 div neg 0 t 0 0 m
 /Times-Roman findfont   77 sf 0    0 m 
(0.5)
 show 
 gr 
 /xs 0 def 
(0.75)
 /Times-Roman     77 stwn 
 gsave  782 125
 t   0 r  xs 2 div neg 0 t 0 0 m
 /Times-Roman findfont   77 sf 0    0 m 
(0.75)
 show 
 gr 
 /xs 0 def 
(1)
 /Times-Roman     77 stwn 
 gsave  930 125
 t   0 r  xs 2 div neg 0 t 0 0 m
 /Times-Roman findfont   77 sf 0    0 m 
(1)
 show 
 gr  596 879 340 198 C NC 936 198 m 879 Y s 902 198 m 34 X s 919 220 m 17 X s
 919 242 m 17 X s 919 264 m 17 X s 902 286 m 34 X s 919 308 m 17 X s 919 330 m
 17 X s 919 352 m 17 X s 902 374 m 34 X s 919 396 m 17 X s 919 418 m 17 X s 919
 440 m 17 X s 902 462 m 34 X s 919 484 m 17 X s 919 506 m 17 X s 919 528 m 17 X
 s 902 550 m 34 X s 919 572 m 17 X s 919 594 m 17 X s 919 616 m 17 X s 902 638 m
 34 X s 919 660 m 17 X s 919 682 m 17 X s 919 704 m 17 X s 902 726 m 34 X s 919
 748 m 17 X s 919 770 m 17 X s 919 792 m 17 X s 902 814 m 34 X s 919 836 m 17 X
 s 919 858 m 17 X s 919 880 m 17 X s 902 902 m 34 X s 919 924 m 17 X s 919 945 m
 17 X s 919 967 m 17 X s 902 989 m 34 X s 919 1011 m 17 X s 919 1033 m 17 X s
 919 1055 m 17 X s 902 1077 m 34 X s 340 1077 m 596 X s 340 1043 m 34 Y s 370
 1060 m 17 Y s 399 1060 m 17 Y s 429 1060 m 17 Y s 458 1060 m 17 Y s 488 1043 m
 34 Y s 517 1060 m 17 Y s 547 1060 m 17 Y s 576 1060 m 17 Y s 605 1060 m 17 Y s
 635 1043 m 34 Y s 664 1060 m 17 Y s 694 1060 m 17 Y s 723 1060 m 17 Y s 753
 1060 m 17 Y s 782 1043 m 34 Y s 812 1060 m 17 Y s 841 1060 m 17 Y s 871 1060 m
 17 Y s 900 1060 m 17 Y s 930 1043 m 34 Y s 930 1043 m 34 Y s 596 879 340 198 C
 3 lw 389 414 m 215 Y s 389 646 m 215 Y s 389 638 m21 429 638 m21 488 638 m21
 547 638 m21 605 638 m21 664 638 m21 723 638 m21 782 638 m21 841 638 m21 900 622
 m 7 Y s 900 646 m 7 Y s 900 638 m21 927 542 m 87 Y s 927 646 m 88 Y s 927 638
 m21 2041 2268 0 0 C 596 879 340 198 C 2041 2268 0 0 C 1 lw 649 43942732 m -3 X
 -4 -8 d -1 X -2 -4 d -12 Y 2 X 1 -4 d 4 -4 d 12 X 3 4 d 1 4 d 2 X 12 Y -2 4 d
 -1 X -3 8 d -9 X cl s 653 43942708 m 9 -12 d s 674 43942724 m 2 X 1 8 d 12 X 2
 -8 d 1 X -4 Y -1 X -3 -8 d -15 -12 d 21 X s 704 43942716 m 28 X s 704 43942708
 m 28 X s 762 43942724 m -2 8 d -12 X -3 -8 d -1 -8 d -8 Y 1 -4 d 3 -4 d 11 X 3
 4 d 1 4 d -1 4 d -3 4 d -5 4 d -1 X -5 -4 d -3 -4 d -1 -4 d s 782 43942732 m -5
 X -3 -8 d -1 -8 d -4 Y 1 -4 d 3 -8 d 12 X 3 8 d 2 4 d 4 Y -2 8 d -3 8 d -7 X cl
 s 596 879 340 198 C 2041 2268 0 0 C
 /xs 0 def 
(x)
 /Times-Roman     77 stwn 
(p)
 /Symbol     54 stwn 
 gsave  638 57
 t   0 r  xs 2 div neg 0 t 0 0 m
 /Times-Roman findfont   77 sf 0    0 m 
(x)
 show 
 currentpoint pop 0 t 
 /Symbol findfont   54 sf 0  -26 m 
(p)
 show 
 gr  596 879 340 198 C NC 596 879 1162 198 bl 596 879 1162 198 C NC 1162 198 m
 879 Y s 1196 198 m -34 X s 1179 220 m -17 X s 1179 242 m -17 X s 1179 264 m -17
 X s 1196 286 m -34 X s 1179 308 m -17 X s 1179 330 m -17 X s 1179 352 m -17 X s
 1196 374 m -34 X s 1179 396 m -17 X s 1179 418 m -17 X s 1179 440 m -17 X s
 1196 462 m -34 X s 1179 484 m -17 X s 1179 506 m -17 X s 1179 528 m -17 X s
 1196 550 m -34 X s 1179 572 m -17 X s 1179 594 m -17 X s 1179 616 m -17 X s
 1196 638 m -34 X s 1179 660 m -17 X s 1179 682 m -17 X s 1179 704 m -17 X s
 1196 726 m -34 X s 1179 748 m -17 X s 1179 770 m -17 X s 1179 792 m -17 X s
 1196 814 m -34 X s 1179 836 m -17 X s 1179 858 m -17 X s 1179 880 m -17 X s
 1196 902 m -34 X s 1179 924 m -17 X s 1179 945 m -17 X s 1179 967 m -17 X s
 1196 989 m -34 X s 1179 1011 m -17 X s 1179 1033 m -17 X s 1179 1055 m -17 X s
 1196 1077 m -34 X s
 /xs 0 def 
(0)
 /Times-Roman     77 stwn 
 gsave  1083 173
 t   0 r  xs neg 0 t 0 0 m
 /Times-Roman findfont   77 sf 0    0 m 
(0)
 show 
 gr 
 /xs 0 def 
(0.2)
 /Times-Roman     77 stwn 
 gsave  1083 261
 t   0 r  xs neg 0 t 0 0 m
 /Times-Roman findfont   77 sf 0    0 m 
(0.2)
 show 
 gr 
 /xs 0 def 
(0.4)
 /Times-Roman     77 stwn 
 gsave  1083 349
 t   0 r  xs neg 0 t 0 0 m
 /Times-Roman findfont   77 sf 0    0 m 
(0.4)
 show 
 gr 
 /xs 0 def 
(0.6)
 /Times-Roman     77 stwn 
 gsave  1083 437
 t   0 r  xs neg 0 t 0 0 m
 /Times-Roman findfont   77 sf 0    0 m 
(0.6)
 show 
 gr 
 /xs 0 def 
(0.8)
 /Times-Roman     77 stwn 
 gsave  1083 524
 t   0 r  xs neg 0 t 0 0 m
 /Times-Roman findfont   77 sf 0    0 m 
(0.8)
 show 
 gr 
 /xs 0 def 
(1)
 /Times-Roman     77 stwn 
 gsave  1083 612
 t   0 r  xs neg 0 t 0 0 m
 /Times-Roman findfont   77 sf 0    0 m 
(1)
 show 
 gr 
 /xs 0 def 
(1.2)
 /Times-Roman     77 stwn 
 gsave  1083 700
 t   0 r  xs neg 0 t 0 0 m
 /Times-Roman findfont   77 sf 0    0 m 
(1.2)
 show 
 gr 
 /xs 0 def 
(1.4)
 /Times-Roman     77 stwn 
 gsave  1083 788
 t   0 r  xs neg 0 t 0 0 m
 /Times-Roman findfont   77 sf 0    0 m 
(1.4)
 show 
 gr 
 /xs 0 def 
(1.6)
 /Times-Roman     77 stwn 
 gsave  1083 876
 t   0 r  xs neg 0 t 0 0 m
 /Times-Roman findfont   77 sf 0    0 m 
(1.6)
 show 
 gr 
 /xs 0 def 
(1.8)
 /Times-Roman     77 stwn 
 gsave  1083 964
 t   0 r  xs neg 0 t 0 0 m
 /Times-Roman findfont   77 sf 0    0 m 
(1.8)
 show 
 gr 
 /xs 0 def 
(2)
 /Times-Roman     77 stwn 
 gsave  1083 1052
 t   0 r  xs neg 0 t 0 0 m
 /Times-Roman findfont   77 sf 0    0 m 
(2)
 show 
 gr  1162 198 m 596 X s 1162 232 m -34 Y s 1192 215 m -17 Y s 1221 215 m -17 Y s
 1251 215 m -17 Y s 1280 215 m -17 Y s 1310 232 m -34 Y s 1339 215 m -17 Y s
 1369 215 m -17 Y s 1398 215 m -17 Y s 1428 215 m -17 Y s 1457 232 m -34 Y s
 1487 215 m -17 Y s 1516 215 m -17 Y s 1545 215 m -17 Y s 1575 215 m -17 Y s
 1604 232 m -34 Y s 1634 215 m -17 Y s 1663 215 m -17 Y s 1693 215 m -17 Y s
 1722 215 m -17 Y s 1752 232 m -34 Y s 1752 232 m -34 Y s
 /xs 0 def 
(0)
 /Times-Roman     77 stwn 
 gsave  1162 125
 t   0 r  xs 2 div neg 0 t 0 0 m
 /Times-Roman findfont   77 sf 0    0 m 
(0)
 show 
 gr 
 /xs 0 def 
(0.25)
 /Times-Roman     77 stwn 
 gsave  1310 125
 t   0 r  xs 2 div neg 0 t 0 0 m
 /Times-Roman findfont   77 sf 0    0 m 
(0.25)
 show 
 gr 
 /xs 0 def 
(0.5)
 /Times-Roman     77 stwn 
 gsave  1457 125
 t   0 r  xs 2 div neg 0 t 0 0 m
 /Times-Roman findfont   77 sf 0    0 m 
(0.5)
 show 
 gr 
 /xs 0 def 
(0.75)
 /Times-Roman     77 stwn 
 gsave  1604 125
 t   0 r  xs 2 div neg 0 t 0 0 m
 /Times-Roman findfont   77 sf 0    0 m 
(0.75)
 show 
 gr 
 /xs 0 def 
(1)
 /Times-Roman     77 stwn 
 gsave  1752 125
 t   0 r  xs 2 div neg 0 t 0 0 m
 /Times-Roman findfont   77 sf 0    0 m 
(1)
 show 
 gr  596 879 1162 198 C NC 1758 198 m 879 Y s 1724 198 m 34 X s 1741 220 m 17 X
 s 1741 242 m 17 X s 1741 264 m 17 X s 1724 286 m 34 X s 1741 308 m 17 X s 1741
 330 m 17 X s 1741 352 m 17 X s 1724 374 m 34 X s 1741 396 m 17 X s 1741 418 m
 17 X s 1741 440 m 17 X s 1724 462 m 34 X s 1741 484 m 17 X s 1741 506 m 17 X s
 1741 528 m 17 X s 1724 550 m 34 X s 1741 572 m 17 X s 1741 594 m 17 X s 1741
 616 m 17 X s 1724 638 m 34 X s 1741 660 m 17 X s 1741 682 m 17 X s 1741 704 m
 17 X s 1724 726 m 34 X s 1741 748 m 17 X s 1741 770 m 17 X s 1741 792 m 17 X s
 1724 814 m 34 X s 1741 836 m 17 X s 1741 858 m 17 X s 1741 880 m 17 X s 1724
 902 m 34 X s 1741 924 m 17 X s 1741 945 m 17 X s 1741 967 m 17 X s 1724 989 m
 34 X s 1741 1011 m 17 X s 1741 1033 m 17 X s 1741 1055 m 17 X s 1724 1077 m 34
 X s 1162 1077 m 596 X s 1162 1043 m 34 Y s 1192 1060 m 17 Y s 1221 1060 m 17 Y
 s 1251 1060 m 17 Y s 1280 1060 m 17 Y s 1310 1043 m 34 Y s 1339 1060 m 17 Y s
 1369 1060 m 17 Y s 1398 1060 m 17 Y s 1428 1060 m 17 Y s 1457 1043 m 34 Y s
 1487 1060 m 17 Y s 1516 1060 m 17 Y s 1545 1060 m 17 Y s 1575 1060 m 17 Y s
 1604 1043 m 34 Y s 1634 1060 m 17 Y s 1663 1060 m 17 Y s 1693 1060 m 17 Y s
 1722 1060 m 17 Y s 1752 1043 m 34 Y s 1752 1043 m 34 Y s 596 879 1162 198 C 3
 lw 1387 578 m 51 Y s 1387 646 m 52 Y s 1387 638 m21 1428 638 m21 1487 638 m21
 1545 638 m21 1604 638 m21 1663 638 m21 1722 638 m21 1749 604 m 25 Y s 1749 646
 m 26 Y s 1749 638 m21 2041 2268 0 0 C 596 879 1162 198 C 2041 2268 0 0 C 1 lw
 1235 30759980 m -3 X -3 -2 d -2 -4 d -1 -4 d -10 Y 1 -4 d 2 -4 d 3 -2 d 12 X 3
 2 d 2 4 d 1 4 d 10 Y -1 4 d -2 4 d -3 2 d -9 X cl s 1239 30759956 m 10 -12 d s
 1261 30759974 m 1 4 d 2 2 d 12 X 1 -2 d 2 -4 d -4 Y -2 X -3 -8 d -15 -12 d 21 X
 s 1291 30759968 m 27 X s 1291 30759960 m 27 X s 1330 30759974 m 2 4 d 1 2 d 12
 X 2 -2 d 1 -4 d -4 Y -1 X -3 -8 d -15 -12 d 21 X s 1374 30759980 m -15 -20 d 23
 X s 1374 30759980 m -30 Y s 1398 30759980 m -4 X -3 -6 d -2 -6 d -6 Y 2 -6 d 3
 -6 d 12 X 3 6 d 1 6 d 6 Y -1 6 d -3 6 d -8 X cl s 596 879 1162 198 C 2041 2268
 0 0 C
 /xs 0 def 
(x)
 /Times-Roman     77 stwn 
(p)
 /Symbol     54 stwn 
 gsave  1460 57
 t   0 r  xs 2 div neg 0 t 0 0 m
 /Times-Roman findfont   77 sf 0    0 m 
(x)
 show 
 currentpoint pop 0 t 
 /Symbol findfont   54 sf 0  -26 m 
(p)
 show 
 gr  596 879 1162 198 C
 gr  gr 
showpage
end
%%EOF
